<svg width="424" height="336" viewBox="0 0 424 336" fill="none" xmlns="http://www.w3.org/2000/svg">
<g clip-path="url(#clip0_8181_53200)">
<path d="M131.613 228.783L131.36 229.432L271.79 284.159L272.043 283.51L131.613 228.783Z" fill="#CACACA"/>
<path d="M231.958 48.1069L153.9 68.684C153.588 68.7724 153.3 68.9298 153.057 69.1448C152.786 69.3823 152.554 69.6618 152.371 69.9725C152.171 70.3091 152.016 70.671 151.911 71.0487C151.8 71.4442 151.743 71.853 151.742 72.2638V188.059C151.742 188.463 151.799 188.866 151.911 189.254C152.014 189.616 152.169 189.961 152.371 190.278C152.553 190.566 152.785 190.82 153.057 191.026C153.304 191.215 153.594 191.339 153.9 191.389L231.958 202.882C232.41 202.951 232.873 202.916 233.31 202.778C233.725 202.644 234.105 202.418 234.42 202.116C234.747 201.8 235.003 201.42 235.173 200.998C235.359 200.533 235.453 200.037 235.45 199.536V51.0471C235.456 50.5564 235.361 50.0698 235.173 49.6167C235.006 49.2191 234.748 48.8664 234.42 48.5872C234.1 48.3194 233.718 48.136 233.31 48.0539C232.861 47.9672 232.398 47.9853 231.958 48.1069V48.1069Z" fill="#F2F2F2"/>
<path d="M155.824 71.9332C155.604 71.9979 155.401 72.1111 155.23 72.2644C155.04 72.432 154.877 72.629 154.749 72.8479C154.609 73.0861 154.501 73.342 154.429 73.609C154.354 73.8877 154.316 74.1755 154.319 74.4643V185.56C154.316 185.844 154.353 186.127 154.429 186.401C154.5 186.656 154.607 186.9 154.749 187.124C154.876 187.328 155.038 187.507 155.229 187.654C155.403 187.788 155.607 187.877 155.824 187.914L228.94 197.765C229.251 197.803 229.567 197.768 229.863 197.664C230.147 197.561 230.404 197.396 230.615 197.181C230.835 196.956 231.006 196.688 231.118 196.393C231.24 196.068 231.3 195.723 231.293 195.376V55.6873C231.301 55.3468 231.241 55.0081 231.118 54.6907C231.008 54.412 230.836 54.1623 230.615 53.9609C230.401 53.7687 230.143 53.633 229.863 53.566C229.559 53.4959 229.243 53.4981 228.94 53.5724L155.824 71.9332Z" fill="white"/>
<path d="M158.917 76.3748C158.767 76.4137 158.628 76.4895 158.514 76.5956C158.383 76.7167 158.272 76.8587 158.187 77.0158C158.089 77.1923 158.015 77.3807 157.966 77.5762C157.912 77.7857 157.884 78.0011 157.883 78.2175V93.6908C157.882 93.8959 157.909 94.1002 157.964 94.2978C158.01 94.4662 158.085 94.6254 158.185 94.7683C158.269 94.8896 158.382 94.9882 158.514 95.0553C158.639 95.1165 158.78 95.1364 158.917 95.1121L224.268 83.8579C224.484 83.8183 224.688 83.7306 224.865 83.6013C225.056 83.4627 225.221 83.292 225.354 83.0969C225.498 82.8879 225.61 82.6586 225.685 82.4165C225.766 82.163 225.807 81.8988 225.807 81.6329V62.6862C225.809 62.4363 225.768 62.1878 225.685 61.952C225.615 61.7487 225.502 61.5627 225.354 61.4059C225.218 61.2601 225.046 61.1535 224.855 61.0972C224.664 61.0409 224.461 61.037 224.268 61.0858L158.917 76.3748Z" fill="#F2F2F2"/>
<path d="M158.917 102.644C158.769 102.671 158.629 102.734 158.509 102.826C158.378 102.927 158.266 103.05 158.178 103.19C158.081 103.343 158.007 103.509 157.957 103.684C157.906 103.87 157.88 104.062 157.883 104.256V137.328C157.881 137.517 157.906 137.705 157.96 137.887C158.007 138.049 158.082 138.203 158.18 138.342C158.268 138.466 158.381 138.57 158.512 138.647C158.635 138.72 158.776 138.758 158.919 138.758L224.27 136.895C224.481 136.884 224.687 136.828 224.873 136.729C225.062 136.629 225.228 136.493 225.365 136.33C225.508 136.159 225.619 135.965 225.693 135.755C225.772 135.534 225.811 135.3 225.808 135.065V94.5693C225.813 94.3405 225.773 94.1129 225.693 93.8986C225.621 93.7054 225.509 93.5294 225.365 93.3818C225.227 93.2413 225.059 93.1342 224.873 93.0689C224.679 93.0017 224.472 92.9814 224.268 93.0095L158.917 102.644Z" fill="#F2F2F2"/>
<path d="M164.643 77.2708L216.152 65.5933V69.5391L164.643 80.6542V77.2708Z" fill="white"/>
<path d="M164.733 84.3819L216.274 73.8846V75.7176L164.733 85.9531V84.3819Z" fill="white"/>
<path d="M164.733 87.1619L216.274 77.1276V78.9605L164.733 88.7333V87.1619Z" fill="white"/>
<path d="M164.733 89.9418L216.274 80.3705V82.2035L164.733 91.5132V89.9418Z" fill="white"/>
<path d="M193.311 137.842L219.448 137.102C219.539 137.1 219.629 137.082 219.714 137.049C219.8 137.017 219.881 136.971 219.953 136.913C220.028 136.854 220.094 136.784 220.149 136.706C220.207 136.623 220.253 136.533 220.287 136.437C220.356 136.245 220.374 136.037 220.339 135.835C220.322 135.738 220.292 135.643 220.25 135.554C220.209 135.466 220.155 135.384 220.09 135.312L202.859 116.21C202.784 116.125 202.691 116.059 202.586 116.017C202.488 115.978 202.382 115.963 202.276 115.973C202.167 115.983 202.062 116.017 201.967 116.073C201.862 116.135 201.77 116.216 201.696 116.314L197.687 121.494C197.536 121.692 197.348 121.859 197.132 121.984C196.94 122.095 196.725 122.163 196.503 122.18C196.289 122.197 196.074 122.161 195.876 122.078C195.664 121.987 195.476 121.848 195.327 121.673V121.673L183.512 108.098C183.447 108.02 183.363 107.96 183.269 107.922C183.181 107.888 183.087 107.876 182.993 107.887C182.895 107.9 182.8 107.935 182.717 107.989C182.622 108.05 182.54 108.13 182.475 108.222L161.719 137.128C161.672 137.194 161.634 137.265 161.605 137.34C161.576 137.418 161.555 137.498 161.543 137.581C161.531 137.664 161.528 137.749 161.534 137.834C161.54 137.918 161.555 138.001 161.58 138.082C161.603 138.159 161.636 138.232 161.678 138.301C161.715 138.362 161.762 138.418 161.816 138.466C161.865 138.511 161.922 138.546 161.984 138.57C162.044 138.594 162.108 138.605 162.173 138.603L193.342 137.708L193.311 137.842Z" fill="white"/>
<path d="M166.721 106.116C167.058 106.071 167.402 106.118 167.714 106.254C168.032 106.395 168.313 106.61 168.532 106.879C168.778 107.182 168.965 107.528 169.084 107.899C169.222 108.322 169.29 108.765 169.288 109.21C169.288 109.671 169.219 110.13 169.084 110.571C168.96 110.981 168.774 111.37 168.532 111.724C168.313 112.048 168.037 112.327 167.716 112.55C167.42 112.755 167.079 112.885 166.722 112.928C166.385 112.967 166.043 112.913 165.734 112.771C165.421 112.624 165.147 112.406 164.932 112.135C164.691 111.833 164.508 111.489 164.392 111.122C164.259 110.704 164.192 110.268 164.195 109.83C164.195 109.376 164.261 108.924 164.392 108.49C164.513 108.083 164.694 107.698 164.931 107.345C165.145 107.022 165.417 106.74 165.733 106.514C166.025 106.304 166.364 106.167 166.721 106.116Z" fill="white"/>
<path d="M158.917 146.525C158.773 146.53 158.632 146.572 158.509 146.648C158.379 146.73 158.267 146.837 158.179 146.964C158.081 147.105 158.007 147.261 157.959 147.426C157.906 147.608 157.88 147.798 157.883 147.988V181.06C157.881 181.252 157.907 181.444 157.96 181.63C158.009 181.802 158.083 181.966 158.18 182.117C158.268 182.254 158.381 182.373 158.512 182.47C158.631 182.559 158.771 182.617 158.919 182.639L224.268 190.219C224.472 190.24 224.679 190.213 224.872 190.14C225.058 190.069 225.226 189.957 225.363 189.812C225.507 189.66 225.619 189.481 225.691 189.285C225.771 189.069 225.81 188.84 225.806 188.61V148.116C225.81 147.882 225.771 147.649 225.691 147.429C225.617 147.222 225.506 147.031 225.363 146.865C225.226 146.705 225.059 146.575 224.872 146.481C224.684 146.387 224.478 146.337 224.268 146.334L158.917 146.525Z" fill="#F2F2F2"/>
<path d="M193.31 186.694L219.447 189.731C219.536 189.741 219.626 189.736 219.713 189.716C219.797 189.696 219.878 189.662 219.951 189.614C220.026 189.566 220.092 189.505 220.147 189.435C220.205 189.359 220.252 189.276 220.285 189.186C220.32 189.093 220.342 188.994 220.35 188.895C220.359 188.793 220.354 188.691 220.337 188.591C220.319 188.49 220.29 188.391 220.248 188.297C220.206 188.202 220.152 188.113 220.088 188.031L202.859 166.441C202.784 166.346 202.691 166.267 202.586 166.209C202.49 166.157 202.384 166.127 202.276 166.121C202.17 166.115 202.064 166.134 201.966 166.176C201.862 166.222 201.769 166.291 201.695 166.377L197.687 170.977C197.535 171.154 197.345 171.295 197.132 171.387C196.933 171.472 196.718 171.508 196.503 171.493C196.282 171.476 196.068 171.41 195.876 171.3C195.662 171.176 195.476 171.012 195.327 170.815L183.512 155.532C183.446 155.445 183.363 155.374 183.268 155.321C183.184 155.275 183.089 155.249 182.992 155.246C182.897 155.244 182.802 155.265 182.717 155.308C182.622 155.355 182.539 155.423 182.473 155.506L161.718 181.415C161.671 181.475 161.633 181.541 161.605 181.611C161.575 181.685 161.554 181.763 161.543 181.842C161.53 181.926 161.527 182.01 161.533 182.094C161.539 182.181 161.555 182.267 161.579 182.35C161.603 182.431 161.635 182.51 161.677 182.583C161.715 182.651 161.761 182.713 161.815 182.769C161.864 182.82 161.921 182.863 161.984 182.897C162.042 182.929 162.106 182.949 162.172 182.957L193.342 186.566L193.31 186.694Z" fill="white"/>
<path d="M166.721 151.125C167.071 151.131 167.413 151.228 167.714 151.406C168.034 151.596 168.312 151.849 168.531 152.151C168.775 152.484 168.961 152.855 169.083 153.25C169.219 153.684 169.287 154.136 169.286 154.59C169.288 155.042 169.219 155.491 169.083 155.922C168.962 156.309 168.775 156.672 168.531 156.995C168.312 157.287 168.034 157.528 167.714 157.703C167.41 157.867 167.067 157.948 166.721 157.938C166.371 157.924 166.031 157.82 165.733 157.637C165.418 157.443 165.145 157.187 164.93 156.885C164.693 156.553 164.511 156.184 164.392 155.794C164.26 155.366 164.194 154.921 164.195 154.474C164.193 154.029 164.26 153.587 164.392 153.162C164.51 152.779 164.692 152.418 164.93 152.096C165.145 151.803 165.418 151.56 165.733 151.38C166.034 151.21 166.375 151.122 166.721 151.125V151.125Z" fill="white"/>
<path d="M177.351 91.4354C177.105 91.4812 176.872 91.5823 176.671 91.7311C176.455 91.8909 176.268 92.087 176.119 92.3106C175.957 92.5508 175.832 92.8138 175.747 93.0909C175.657 93.3821 175.61 93.6852 175.609 93.9901V219.107C175.612 219.713 175.789 220.306 176.118 220.815C176.268 221.047 176.454 221.254 176.67 221.426C176.87 221.585 177.102 221.7 177.35 221.761L270.049 243.157C270.42 243.246 270.806 243.257 271.182 243.188C271.52 243.124 271.838 242.982 272.111 242.774C272.381 242.565 272.597 242.295 272.741 241.985C272.898 241.643 272.977 241.271 272.973 240.895V77.7536C272.976 77.3733 272.897 76.9969 272.741 76.6499C272.596 76.331 272.381 76.0491 272.111 75.8254C271.84 75.6022 271.523 75.4426 271.182 75.3583C270.811 75.268 270.425 75.2566 270.049 75.3246L177.351 91.4354Z" fill="#E6E6E6"/>
<path d="M179.491 94.6093C179.24 94.6584 179.003 94.7636 178.799 94.917C178.58 95.0806 178.391 95.281 178.24 95.5094C178.078 95.7539 177.952 96.0212 177.869 96.3027C177.78 96.5985 177.737 96.9061 177.74 97.2149V217.011C177.736 217.626 177.909 218.229 178.24 218.747C178.391 218.985 178.58 219.196 178.799 219.373C179.002 219.538 179.238 219.657 179.491 219.722L266.235 239.066C266.604 239.146 266.984 239.146 267.353 239.066C267.686 238.994 267.998 238.843 268.262 238.627C268.526 238.41 268.735 238.134 268.87 237.82C269.019 237.474 269.092 237.099 269.082 236.722V82.9962C269.091 82.6152 269.018 82.2367 268.87 81.8856C268.734 81.5632 268.527 81.2756 268.264 81.0441C268.001 80.8127 267.69 80.6433 267.353 80.5485C266.989 80.4475 266.608 80.425 266.235 80.4822L179.491 94.6093Z" fill="white"/>
<path d="M190.566 110.925C190.449 110.939 190.337 110.979 190.238 111.043C190.134 111.111 190.044 111.196 189.971 111.296C189.893 111.403 189.832 111.522 189.791 111.649C189.747 111.782 189.725 111.922 189.725 112.062V116.859C189.724 116.995 189.746 117.13 189.791 117.259C189.831 117.375 189.892 117.482 189.971 117.575C190.044 117.661 190.135 117.729 190.238 117.775C190.341 117.82 190.454 117.839 190.566 117.829L248.993 112.674C249.152 112.659 249.306 112.612 249.446 112.536C249.587 112.46 249.712 112.36 249.817 112.239C249.924 112.117 250.009 111.977 250.068 111.825C250.128 111.67 250.16 111.505 250.161 111.339V105.674C250.161 105.514 250.13 105.354 250.068 105.205C250.011 105.068 249.926 104.943 249.818 104.84C249.712 104.74 249.586 104.663 249.447 104.616C249.301 104.567 249.146 104.55 248.993 104.567L190.566 110.925Z" fill="#6C63FF"/>
<path d="M190.25 126.858C190.22 126.86 190.192 126.869 190.167 126.884C190.141 126.899 190.118 126.92 190.1 126.944C190.08 126.97 190.065 126.999 190.055 127.03C190.044 127.063 190.039 127.097 190.039 127.132V129.006C190.038 129.041 190.044 129.075 190.055 129.107C190.065 129.137 190.08 129.164 190.1 129.188C190.118 129.21 190.141 129.228 190.167 129.24C190.193 129.252 190.221 129.258 190.25 129.256L249.722 126.033C249.762 126.031 249.8 126.02 249.836 126.002C249.871 125.985 249.902 125.961 249.928 125.931C249.983 125.87 250.014 125.791 250.014 125.709V123.499C250.014 123.459 250.006 123.418 249.991 123.381C249.977 123.345 249.955 123.313 249.928 123.287C249.902 123.26 249.869 123.239 249.834 123.225C249.798 123.212 249.76 123.206 249.722 123.209L190.25 126.858Z" fill="#CCCCCC"/>
<path d="M190.25 132.954C190.221 132.955 190.192 132.963 190.167 132.978C190.141 132.993 190.118 133.013 190.1 133.037C190.08 133.063 190.065 133.091 190.055 133.122C190.044 133.155 190.039 133.189 190.039 133.224V135.098C190.038 135.133 190.044 135.167 190.055 135.2C190.065 135.23 190.08 135.258 190.1 135.282C190.118 135.305 190.141 135.323 190.167 135.336C190.193 135.349 190.221 135.355 190.25 135.354L249.722 133.211C249.761 133.209 249.8 133.2 249.836 133.183C249.871 133.166 249.902 133.142 249.928 133.114C249.983 133.053 250.014 132.975 250.014 132.893V130.682C250.014 130.641 250.006 130.601 249.991 130.563C249.977 130.528 249.955 130.495 249.928 130.468C249.902 130.441 249.871 130.42 249.836 130.406C249.8 130.391 249.761 130.385 249.722 130.387L190.25 132.954Z" fill="#CCCCCC"/>
<path d="M190.25 139.049C190.221 139.05 190.192 139.058 190.167 139.072C190.141 139.087 190.119 139.106 190.101 139.13C190.081 139.155 190.066 139.183 190.056 139.214C190.045 139.247 190.04 139.281 190.04 139.316V141.19C190.039 141.224 190.045 141.259 190.056 141.291C190.066 141.322 190.081 141.35 190.101 141.374C190.119 141.397 190.142 141.416 190.168 141.429C190.193 141.443 190.222 141.449 190.251 141.449L249.722 140.389C249.762 140.388 249.8 140.378 249.836 140.361C249.871 140.345 249.902 140.322 249.929 140.293C249.955 140.265 249.977 140.231 249.991 140.194C250.006 140.156 250.014 140.115 250.014 140.074V137.865C250.014 137.824 250.006 137.784 249.991 137.746C249.977 137.71 249.955 137.677 249.929 137.65C249.902 137.622 249.871 137.6 249.836 137.584C249.8 137.57 249.761 137.563 249.722 137.564L190.25 139.049Z" fill="#CCCCCC"/>
<path d="M190.145 151.224C190.116 151.224 190.088 151.23 190.062 151.244C190.036 151.257 190.013 151.276 189.995 151.299C189.976 151.324 189.961 151.352 189.951 151.382C189.94 151.414 189.935 151.448 189.935 151.483V153.356C189.935 153.391 189.94 153.425 189.951 153.458C189.961 153.488 189.977 153.516 189.996 153.541C190.014 153.565 190.037 153.584 190.063 153.599C190.088 153.613 190.117 153.62 190.146 153.621L249.577 154.722C249.616 154.723 249.655 154.715 249.691 154.7C249.726 154.685 249.757 154.663 249.784 154.636C249.81 154.608 249.832 154.575 249.846 154.539C249.861 154.501 249.869 154.46 249.869 154.419V152.211C249.869 152.17 249.861 152.129 249.846 152.091C249.832 152.054 249.81 152.021 249.784 151.992C249.757 151.964 249.726 151.941 249.691 151.925C249.655 151.909 249.617 151.9 249.577 151.899L190.145 151.224Z" fill="#CCCCCC"/>
<path d="M190.145 157.318C190.116 157.317 190.088 157.323 190.062 157.336C190.036 157.349 190.013 157.368 189.995 157.391C189.975 157.416 189.96 157.444 189.95 157.474C189.94 157.506 189.934 157.539 189.935 157.573V159.446C189.935 159.481 189.94 159.516 189.951 159.549C189.961 159.579 189.976 159.608 189.996 159.633C190.014 159.657 190.037 159.677 190.063 159.692C190.088 159.706 190.117 159.715 190.146 159.716L249.577 161.898C249.616 161.9 249.655 161.893 249.691 161.878C249.726 161.864 249.757 161.843 249.784 161.816C249.81 161.788 249.832 161.756 249.846 161.72C249.861 161.682 249.869 161.642 249.869 161.601V159.392C249.869 159.351 249.861 159.31 249.846 159.271C249.832 159.234 249.81 159.201 249.784 159.171C249.757 159.143 249.726 159.12 249.691 159.103C249.655 159.086 249.617 159.076 249.577 159.075L190.145 157.318Z" fill="#CCCCCC"/>
<path d="M190.145 163.411C190.116 163.41 190.088 163.416 190.063 163.429C190.037 163.441 190.014 163.459 189.996 163.481C189.976 163.505 189.961 163.532 189.951 163.562C189.94 163.594 189.934 163.628 189.935 163.662V165.536C189.935 165.571 189.94 165.605 189.951 165.639C189.961 165.669 189.976 165.698 189.996 165.724C190.014 165.748 190.037 165.768 190.063 165.784C190.088 165.799 190.116 165.807 190.146 165.809L249.577 169.073C249.615 169.075 249.653 169.069 249.689 169.056C249.725 169.042 249.757 169.021 249.784 168.994C249.811 168.967 249.832 168.935 249.846 168.899C249.861 168.862 249.869 168.821 249.869 168.781V166.572C249.869 166.49 249.838 166.412 249.784 166.351C249.757 166.322 249.726 166.298 249.691 166.281C249.656 166.263 249.617 166.253 249.577 166.251L190.145 163.411Z" fill="#CCCCCC"/>
<path d="M190.145 169.535C190.116 169.533 190.088 169.538 190.062 169.55C190.037 169.562 190.014 169.58 189.996 169.602C189.976 169.626 189.961 169.653 189.951 169.682C189.94 169.714 189.934 169.748 189.935 169.783V171.656C189.935 171.691 189.94 171.726 189.951 171.759C189.961 171.79 189.976 171.819 189.996 171.845C190.014 171.87 190.037 171.891 190.063 171.906C190.088 171.922 190.116 171.932 190.146 171.934L249.576 176.284C249.615 176.287 249.654 176.281 249.69 176.268C249.724 176.255 249.756 176.235 249.782 176.209C249.809 176.182 249.831 176.15 249.845 176.115C249.86 176.078 249.868 176.038 249.868 175.997V173.788C249.868 173.746 249.86 173.705 249.845 173.667C249.83 173.629 249.809 173.595 249.782 173.564C249.756 173.535 249.725 173.51 249.69 173.492C249.655 173.474 249.616 173.463 249.576 173.46L190.145 169.535Z" fill="#CCCCCC"/>
<path d="M190.145 175.628C190.117 175.626 190.088 175.631 190.062 175.642C190.037 175.654 190.014 175.672 189.996 175.694C189.976 175.717 189.961 175.743 189.951 175.772C189.94 175.804 189.934 175.838 189.935 175.872V177.746C189.935 177.781 189.94 177.816 189.951 177.849C189.961 177.88 189.977 177.91 189.996 177.936C190.014 177.961 190.037 177.982 190.063 177.998C190.088 178.014 190.116 178.023 190.146 178.026L249.576 183.459C249.615 183.462 249.653 183.458 249.69 183.445C249.724 183.433 249.756 183.413 249.782 183.387C249.809 183.361 249.831 183.33 249.845 183.295C249.86 183.258 249.868 183.218 249.868 183.177V180.968C249.868 180.926 249.86 180.885 249.845 180.846C249.83 180.808 249.809 180.774 249.782 180.743C249.756 180.713 249.725 180.688 249.69 180.669C249.655 180.65 249.616 180.639 249.576 180.635L190.145 175.628Z" fill="#CCCCCC"/>
<path d="M190.145 181.722C190.117 181.719 190.088 181.723 190.062 181.734C190.037 181.745 190.014 181.762 189.996 181.783C189.976 181.806 189.961 181.833 189.951 181.862C189.94 181.894 189.934 181.928 189.935 181.962V183.836C189.935 183.871 189.94 183.906 189.951 183.939C189.961 183.971 189.977 184 189.996 184.027C190.014 184.052 190.037 184.074 190.063 184.09C190.088 184.107 190.116 184.117 190.146 184.12L249.576 190.633C249.615 190.638 249.653 190.634 249.69 190.622C249.724 190.61 249.756 190.591 249.782 190.566C249.809 190.541 249.831 190.51 249.845 190.475C249.86 190.438 249.868 190.398 249.868 190.358V188.148C249.868 188.106 249.86 188.065 249.845 188.026C249.83 187.988 249.809 187.953 249.782 187.922C249.756 187.891 249.725 187.866 249.69 187.846C249.655 187.827 249.616 187.814 249.576 187.81L190.145 181.722Z" fill="#CCCCCC"/>
<path d="M190.145 187.846C190.117 187.843 190.088 187.846 190.062 187.857C190.037 187.867 190.014 187.883 189.996 187.904C189.976 187.927 189.961 187.953 189.951 187.982C189.94 188.014 189.934 188.048 189.935 188.082V189.956C189.935 189.991 189.94 190.026 189.951 190.059C189.961 190.091 189.977 190.121 189.996 190.148C190.014 190.174 190.037 190.195 190.063 190.213C190.088 190.229 190.116 190.24 190.146 190.244L249.576 197.845C249.614 197.85 249.653 197.846 249.69 197.835C249.724 197.824 249.756 197.805 249.782 197.78C249.809 197.755 249.831 197.724 249.845 197.69C249.86 197.653 249.868 197.613 249.868 197.573V195.365C249.868 195.323 249.86 195.281 249.845 195.242C249.83 195.203 249.809 195.168 249.782 195.136C249.756 195.105 249.725 195.079 249.69 195.059C249.655 195.039 249.616 195.026 249.576 195.021L190.145 187.846Z" fill="#CCCCCC"/>
<path d="M190.145 193.94C190.117 193.936 190.088 193.939 190.062 193.949C190.037 193.959 190.014 193.975 189.996 193.996C189.976 194.018 189.961 194.044 189.951 194.072C189.94 194.104 189.934 194.138 189.935 194.172V196.045C189.935 196.081 189.94 196.116 189.951 196.149C189.961 196.181 189.977 196.212 189.996 196.239C190.014 196.265 190.037 196.287 190.063 196.305C190.088 196.322 190.116 196.333 190.146 196.337L249.576 205.02C249.614 205.025 249.653 205.023 249.69 205.012C249.724 205.001 249.756 204.984 249.782 204.959C249.81 204.935 249.831 204.904 249.845 204.871C249.861 204.834 249.868 204.794 249.868 204.754V202.545C249.868 202.503 249.86 202.461 249.845 202.422C249.83 202.383 249.809 202.347 249.782 202.315C249.756 202.284 249.725 202.257 249.69 202.236C249.655 202.216 249.616 202.202 249.576 202.196L190.145 193.94Z" fill="#CCCCCC"/>
<path d="M190.145 200.033C190.117 200.029 190.089 200.031 190.062 200.041C190.037 200.051 190.014 200.066 189.996 200.087C189.976 200.109 189.961 200.134 189.951 200.162C189.94 200.194 189.934 200.228 189.935 200.261V202.135C189.935 202.17 189.94 202.206 189.951 202.24C189.961 202.272 189.977 202.302 189.996 202.33C190.014 202.356 190.037 202.379 190.063 202.397C190.088 202.414 190.116 202.426 190.146 202.431L249.576 212.194C249.614 212.201 249.653 212.199 249.69 212.189C249.724 212.179 249.756 212.162 249.782 212.138C249.81 212.114 249.831 212.084 249.845 212.05C249.861 212.014 249.868 211.974 249.868 211.934V209.725C249.868 209.683 249.86 209.641 249.845 209.601C249.83 209.562 249.809 209.526 249.782 209.493C249.756 209.461 249.725 209.434 249.69 209.413C249.655 209.392 249.617 209.377 249.576 209.371L190.145 200.033Z" fill="#CCCCCC"/>
<path d="M267.484 209.077C270.746 209.585 273.886 210.695 276.742 212.351C282.748 215.83 287.44 221.19 290.094 227.603C291.422 230.796 292.116 234.218 292.138 237.676C292.174 240.868 291.474 244.026 290.094 246.905C288.833 249.498 286.951 251.741 284.617 253.434C282.281 255.108 279.583 256.207 276.742 256.64C273.652 257.103 270.498 256.915 267.484 256.089C264.312 255.236 261.313 253.834 258.624 251.946C255.98 250.098 253.634 247.856 251.667 245.299C249.736 242.805 248.199 240.03 247.109 237.071C246.038 234.177 245.481 231.119 245.465 228.034C245.439 225.165 245.999 222.321 247.109 219.676C248.14 217.23 249.712 215.049 251.706 213.297C253.701 211.545 256.066 210.267 258.624 209.559C261.51 208.77 264.53 208.606 267.484 209.077V209.077Z" fill="#6C63FF"/>
<path d="M265.279 241.997L258.505 231.585L262.417 229.258L265.659 234.175L277.002 224.419L280.938 228.818L265.279 241.997Z" fill="white"/>
<path d="M215.818 229.865L214.593 212.897L216.792 196.997L210.547 196.575L209.314 214.139L212.798 230.656C212.501 231.066 212.339 231.558 212.332 232.064C212.326 232.571 212.476 233.067 212.762 233.484C213.048 233.902 213.456 234.221 213.93 234.398C214.405 234.575 214.922 234.601 215.412 234.473C215.902 234.345 216.34 234.068 216.666 233.681C216.993 233.294 217.192 232.816 217.237 232.312C217.281 231.807 217.169 231.302 216.915 230.864C216.661 230.426 216.277 230.077 215.818 229.865V229.865Z" fill="#9F616A"/>
<path d="M209.75 198.86L211.217 192.513C211.497 191.298 212.232 190.236 213.271 189.545C214.31 188.854 215.573 188.586 216.803 188.797C218.032 189.007 219.135 189.68 219.884 190.677C220.634 191.674 220.974 192.921 220.834 194.16L220.026 201.332L209.75 198.86Z" fill="#CBCBCB"/>
<path d="M221.312 285.146L224.256 285.146L225.657 273.789L221.312 273.789L221.312 285.146Z" fill="#9F616A"/>
<path d="M220.561 284.185L226.36 284.184H226.36C227.34 284.184 228.28 284.574 228.973 285.267C229.666 285.96 230.055 286.9 230.055 287.88V288L220.561 288L220.561 284.185Z" fill="#2F2E41"/>
<path d="M235.981 285.05L238.811 284.239L237.031 272.935L232.853 274.132L235.981 285.05Z" fill="#9F616A"/>
<path d="M234.994 284.332L240.568 282.735L240.569 282.735C241.511 282.466 242.522 282.581 243.379 283.056C244.236 283.532 244.869 284.328 245.139 285.27L245.172 285.386L236.045 288L234.994 284.332Z" fill="#2F2E41"/>
<path d="M219.72 281.024L221.09 246.622L217.533 231.053C212.746 223.028 217.91 210.227 217.963 210.098L217.982 210.051L218.033 210.044L230.554 208.348L230.729 208.752C235.627 219.948 236.986 232.374 234.625 244.365L233.322 251.031L239.762 277.035L233.667 280.083L228.99 267.955L225.829 280.364L219.72 281.024Z" fill="#2F2E41"/>
<path d="M216.314 213.289L212.23 201.32C209.69 196.848 211.301 192.878 213.099 190.335C215.042 187.589 215.158 186.049 215.184 186.032L215.205 186.018L220.571 185.855L225.538 190.902C225.851 190.78 228.49 197.284 228.266 197.611L231.735 208.825L216.314 213.289Z" fill="#CBCBCB"/>
<path d="M249.389 215.359L235.933 204.95L225.556 192.704L221.075 197.075L233.336 209.711L247.964 218.136C248.072 218.631 248.329 219.08 248.702 219.423C249.075 219.765 249.544 219.985 250.046 220.05C250.548 220.116 251.059 220.025 251.507 219.789C251.955 219.554 252.32 219.186 252.551 218.736C252.782 218.285 252.868 217.774 252.798 217.273C252.728 216.771 252.505 216.304 252.159 215.934C251.812 215.565 251.361 215.311 250.865 215.208C250.369 215.105 249.854 215.158 249.389 215.359V215.359Z" fill="#9F616A"/>
<path d="M219.802 201.503L216.053 196.176C215.335 195.156 215.034 193.9 215.212 192.665C215.39 191.43 216.034 190.311 217.011 189.535C217.989 188.76 219.225 188.387 220.468 188.494C221.711 188.601 222.866 189.18 223.696 190.111L228.5 195.497L219.802 201.503Z" fill="#CBCBCB"/>
<path d="M217.257 184.388C220.777 184.388 223.63 181.534 223.63 178.015C223.63 174.495 220.777 171.642 217.257 171.642C213.737 171.642 210.884 174.495 210.884 178.015C210.884 181.534 213.737 184.388 217.257 184.388Z" fill="#9F616A"/>
<path d="M223.737 174.781H213.617V170.37C215.838 169.488 218.012 168.737 219.326 170.37C220.496 170.37 221.618 170.835 222.445 171.662C223.272 172.49 223.737 173.612 223.737 174.781V174.781Z" fill="#2F2E41"/>
<path d="M215.012 169.313C205.74 169.059 207.496 184.334 207.496 184.334C207.496 184.334 209.245 184.566 210.043 184.702L211.007 184.159L212.044 184.839C212.521 184.841 213.021 184.832 213.54 184.823L214.015 183.843L215.076 184.805C217.006 184.808 222.244 184.861 222.244 184.861C222.244 184.861 225.401 169.596 215.012 169.313Z" fill="#2F2E41"/>
<path d="M177.654 195.484C177.691 195.185 177.662 194.882 177.568 194.596C177.475 194.31 177.32 194.048 177.115 193.828C176.909 193.608 176.658 193.436 176.379 193.323C176.1 193.211 175.799 193.162 175.499 193.178L173.462 188.938L170.583 189.547L173.544 195.495C173.605 195.998 173.848 196.461 174.228 196.796C174.608 197.132 175.097 197.316 175.604 197.315C176.111 197.314 176.599 197.127 176.977 196.789C177.355 196.452 177.596 195.987 177.654 195.484H177.654Z" fill="#FFB7B7"/>
<path d="M133.432 244.715L135.828 245.941L141.697 237.283L138.161 235.474L133.432 244.715Z" fill="#FFB7B7"/>
<path d="M133.221 243.62L137.94 246.035L137.94 246.035C138.737 246.443 139.34 247.151 139.615 248.004C139.891 248.856 139.816 249.783 139.408 250.581L139.358 250.678L131.632 246.725L133.221 243.62Z" fill="#2F2E41"/>
<path d="M161.104 248.069H163.795L165.075 237.688L161.103 237.688L161.104 248.069Z" fill="#FFB7B7"/>
<path d="M160.417 247.191L165.717 247.19H165.718C166.613 247.19 167.473 247.546 168.106 248.18C168.74 248.813 169.095 249.672 169.095 250.568V250.678L160.417 250.678L160.417 247.191Z" fill="#2F2E41"/>
<path d="M148.514 163.392C148.514 163.392 146.712 162.011 146.712 165.384L146.427 176.53L149.605 187.059L151.455 183.644L150.696 176.245L148.514 163.392Z" fill="#6C63FF"/>
<path d="M167.794 193.878C167.794 193.878 169.884 204.056 167.236 212.409L165.773 244.525L160.409 244.107L158.528 220.281L156.717 208.438L152.955 219.236L140.554 242.086L134.842 237.628C134.842 237.628 141.172 220.355 145.849 216.728L148.195 190.014L167.794 193.878Z" fill="#2F2E41"/>
<path d="M161.435 149.784C164.813 149.784 167.552 147.045 167.552 143.667C167.552 140.289 164.813 137.551 161.435 137.551C158.057 137.551 155.319 140.289 155.319 143.667C155.319 147.045 158.057 149.784 161.435 149.784Z" fill="#FFB8B8"/>
<path d="M161.002 144.964C161.735 145.06 162.289 144.31 162.545 143.616C162.802 142.923 162.997 142.115 163.635 141.741C164.505 141.229 165.62 141.845 166.616 141.676C167.74 141.485 168.472 140.293 168.529 139.154C168.586 138.014 168.133 136.919 167.688 135.868L167.533 137.174C167.554 136.731 167.46 136.291 167.262 135.895C167.064 135.498 166.768 135.16 166.401 134.911L166.602 136.826C166.559 136.562 166.465 136.309 166.324 136.081C166.183 135.853 165.999 135.656 165.782 135.499C165.564 135.343 165.318 135.231 165.058 135.17C164.797 135.109 164.527 135.1 164.263 135.144L164.294 136.285C163 136.086 161.689 136.022 160.382 136.094C159.066 136.17 157.806 136.655 156.779 137.482C155.302 138.765 154.763 140.879 154.944 142.827C155.125 144.776 155.929 146.606 156.768 148.375C156.979 148.819 157.27 149.322 157.759 149.378C157.981 149.381 158.198 149.311 158.375 149.177C158.552 149.044 158.679 148.855 158.737 148.641C158.843 148.209 158.839 147.758 158.726 147.328C158.553 146.681 158.497 146.009 158.562 145.342C158.679 144.684 159.152 144.034 159.815 143.953C160.479 143.872 161.158 144.631 160.839 145.218L161.002 144.964Z" fill="#2F2E41"/>
<path d="M155.581 152.009L156.862 150.231C156.862 150.231 158.293 150.717 162.126 152.625L162.397 154.291L169.051 195.217L156.956 194.695L153.663 194.625L151.256 194.574L148.04 194.505L147.992 182.743L149.036 173.731L147.423 165.241C147.423 165.241 145.394 157.445 153.209 153.242L155.581 152.009Z" fill="#6C63FF"/>
<path d="M172.343 193.307L172.782 194.844L175.856 192.842L174.696 191.514L172.343 193.307Z" fill="#CBCBCB"/>
<path d="M157.869 156.955C157.869 156.955 162.633 150.873 165.512 157.652L166.42 164.756C166.42 164.756 169.909 173.586 170.014 177.159C170.014 177.159 172.379 181.822 172.357 184.271L175.856 192.191L172.267 194.419L162.336 179.192L157.869 156.955Z" fill="#6C63FF"/>
</g>
<defs>
<clipPath id="clip0_8181_53200">
<rect width="160.779" height="240" fill="white" transform="translate(131.36 48)"/>
</clipPath>
</defs>
</svg>
