<svg width="391" height="391" viewBox="0 0 391 391" fill="none" xmlns="http://www.w3.org/2000/svg">
<path d="M195.659 91.4451L97.8296 153.89L195.659 216.335L97.8296 278.781L0 215.815L97.8296 153.37L0 91.4451L97.8296 29L195.659 91.4451ZM97.3093 298.555L195.139 236.11L292.969 298.555L195.139 361L97.3093 298.555ZM195.659 215.815L293.489 153.37L195.659 91.4451L292.969 29L390.798 91.4451L292.969 153.89L390.798 216.335L292.969 278.781L195.659 215.815Z" fill="#0061FF"/>
</svg>
