<svg width="300" height="267" viewBox="0 0 300 267" fill="none" xmlns="http://www.w3.org/2000/svg">
<g clip-path="url(#clip0)">
<path d="M193.649 55.6487H108.418L70.1312 112.514L150.661 192.256L231.149 112.274L193.649 55.6487ZM182.18 126.201L180.592 129.127L179.521 131.073L177.564 130.007L157.442 118.998C155.612 120.74 153.183 121.711 150.656 121.711C148.13 121.711 145.701 120.74 143.871 118.998L123.754 130.007L121.795 131.073L120.724 129.127L119.13 126.201L118.051 124.258L120.014 123.179L140.706 111.859V111.765C140.708 109.845 141.265 107.967 142.308 106.356C143.352 104.745 144.839 103.469 146.59 102.683V79.4147H154.382V102.534C156.221 103.274 157.798 104.547 158.909 106.189C160.02 107.832 160.615 109.768 160.618 111.751C160.618 111.776 160.618 111.809 160.618 111.853L181.313 123.165L183.27 124.233L182.18 126.201Z" fill="#22201F"/>
<path d="M222.132 2.62294H80.2018L1.63477 119.298L150.716 266.948L299.372 119.246L222.132 2.62294ZM150.669 206.345L57.2119 113.794L103.095 45.6469H199.018L244.018 113.59L150.669 206.345Z" fill="#22201F"/>
</g>
<defs>
<clipPath id="clip0">
<rect width="300" height="266.972" fill="white"/>
</clipPath>
</defs>
</svg>
