<svg xmlns="http://www.w3.org/2000/svg" xmlns:xlink="http://www.w3.org/1999/xlink" width="200mm" height="200mm" viewBox="0 0 566.93 566.93">
  <defs>
    <linearGradient id="a" data-name="Gradient bez nazwy 121" x1="158.59" y1="381.46" x2="202.13" y2="218.29" gradientUnits="userSpaceOnUse">
      <stop offset="0" stop-color="#4da0ff"/>
      <stop offset="0.99" stop-color="#4fdbe3"/>
    </linearGradient>
    <linearGradient id="b" data-name="Gradient bez nazwy 169" x1="214.32" y1="203.53" x2="333.74" y2="322.94" gradientUnits="userSpaceOnUse">
      <stop offset="0" stop-color="#37a9ff"/>
      <stop offset="0.26" stop-color="#379cfc"/>
      <stop offset="0.73" stop-color="#377af3"/>
      <stop offset="1" stop-color="#3764ee"/>
    </linearGradient>
    <linearGradient id="c" data-name="Gradient bez nazwy 202" x1="428.42" y1="244.04" x2="309.01" y2="363.46" gradientUnits="userSpaceOnUse">
      <stop offset="0" stop-color="#4579ff"/>
      <stop offset="0.26" stop-color="#4764ea"/>
      <stop offset="0.74" stop-color="#4a43c8"/>
      <stop offset="0.99" stop-color="#4b37bb"/>
    </linearGradient>
    <linearGradient id="d" data-name="Gradient bez nazwy 44" x1="254.9" y1="406.36" x2="293.16" y2="444.62" gradientUnits="userSpaceOnUse">
      <stop offset="0" stop-color="#4090ef"/>
      <stop offset="0.37" stop-color="#3d83ef"/>
      <stop offset="1" stop-color="#3764ee"/>
    </linearGradient>
  </defs>
  <g>
    <path d="M206.38,222.59V384.9a27.06,27.06,0,1,1-54.11,0V222.59a27.06,27.06,0,1,1,54.11,0Z" style="fill: url(#a)"/>
    <path d="M301.08,182.08V344.39a27.06,27.06,0,1,1-54.11,0V182.08a27.06,27.06,0,1,1,54.11,0Z" style="fill: url(#b)"/>
    <path d="M395.77,222.59V384.91a27.06,27.06,0,0,1-54.11,0V222.59a27.06,27.06,0,0,1,54.11,0Z" style="fill: url(#c)"/>
    <rect x="246.97" y="398.44" width="54.11" height="54.11" rx="27.05" style="fill: url(#d)"/>
    <rect x="341.68" y="114.38" width="54.11" height="54.11" rx="27.05" style="fill: #4579ff"/>
  </g>
</svg>
