{
    "url": "/get-compliant/business/consumer-data-collection",
    "header": {
        "title": "Data Collection"
    },
    "collection_questions": [
        {
            "header": "What information do you collect directly from Consumers?",
            "question": "We’ve listed below the most commonly collected types of consumer personal information. Which of these does your business collect from its customers?"
        },
        {
            "question": "The list below includes categories of personal information that are considered \"sensitive.\" Select any sensitive information your business collects. If it collects none, select \"Done\"."
        },
        {
            "question": "Does your business collect any uncommon personal information, like physical characteristics (height, weight, eye color), or employer name?",
            "help": "If you’re unsure, it’s better to select “No” for now until you’re able to confirm the answer. You can update your selection at any time."
        },
        {
            "question": "Does your business make inferences about consumers based on any of the data it collects? Inferences include information, data, assumptions, or conclusions drawn from any other personal information to create a profile about a consumer reflecting their preferences, characteristics, predispositions, behavior, attitudes, intelligence, abilities, or aptitudes.",
            "help": "For example, if you use characteristics like age, gender, marital status, education level, geography, etc. to predict a consumer’s purchasing preferences for purposes of marketing campaigns, answer “Yes.”"
        },
        {
            "question": "Does your business infer characteristics about consumers based on",
            "help": "Consumers have the right to limit your use of their sensitive personal information to infer characteristics about them. If you answer “Yes” we will prompt you to add a special notice to consumers in a later step."
        },
        {
            "question": "The categories of information below may be collected indirectly from consumers, such as when they browse your website, login to their account, or use your mobile app (if applicable). Select any categories of information that you collect below.",
            "help": "If you use any ad networks or embedded analytics tools, such as Facebook Ads or Google Analytics, you are most likely indirectly collecting this information. If you are unsure, it is best to select these categories."
        }
    ]
}
