<svg xmlns="http://www.w3.org/2000/svg" width="545" height="398" fill="none" viewBox="0 0 545 398">
    <path fill="#F3F6FE" d="M4.66 249.127c-6.213-3.602-6.213-9.441 0-13.042L265.31 84.99c6.213-3.602 16.286-3.602 22.498 0L539.97 231.162c6.213 3.601 6.213 9.44 0 13.042L279.318 395.299c-6.212 3.601-16.285 3.601-22.498 0L4.66 249.127z"/>
    <path fill="url(#a)" d="M378.649 224.727c2.574 1.486 2.587 3.899.029 5.386l-60.677 35.307c-2.558 1.487-6.724 1.487-9.29 0L174.5 187.836c-2.571-1.486-2.585-3.899-.027-5.386l60.677-35.307c2.558-1.487 6.724-1.487 9.288 0l134.211 77.584z"/>
    <path fill="#F7C19C" d="M279.664 161.852l16.815-1.223s-2.375-20.679-3.093-22.736c-.718-2.058-5.175-4.374-5.557-5.521-.382-1.147 2.51.488 3.047 0 .538-.487-1.417-7.898-.933-8.079.484-.18 1.883 2.044 2.367 4.737 0 0-.605-7.54.336-7.473.942.068 1.278 7.002 1.278 7.002s.559-5.424 1.406-4.934c.848.49 1.014 5.736 1.014 5.736s.224-4.071 1.3-4.386c1.075-.316 1.715 9.514 1.312 11.331 0 0 7.824 26.472 7.91 31.71.086 5.238-23.442 3.035-23.442 3.035l-3.76-9.199zM262.891 171.528l-5.75-5.925s1.001-4.128-.538-6.393c-1.538-2.265-2.42-5.065-5.417-7.252-2.996-2.187-11.864 1.616-11.866 5.924-.003 4.309 14.093 20.809 14.093 20.809l9.478-7.163zM239.503 189.686l-8.548 5.034c-.344-8.618-5.406-28.433-5.406-28.433s-2.531-5.542 0-8.369c2.531-2.828-2.052-.054-2.574-.353-.522-.299-5.648-6.784-6.455-6.784-.807 0 2.509 4.5 1.713 4.04-.796-.461-4.634-5.147-6.016-4.713-1.383.434 4.978 7.002 4.978 7.002s-4.739-4.091-6.592-3.77c-1.853.32 4.841 5.954 4.841 5.954s-4.282-3.033-5.167-1.735c-.884 1.298 4.758 3.859 5.84 5.475.782 1.172 2.054 3.189 3.362 4.309 2.899 6.875.47 37.244 4.841 39.759 4.438 2.558 17.974-5.868 17.974-5.868l-2.791-11.548z"/>
    <path fill="url(#b)" d="M268.978 209.471l22.251 33.485a9.145 9.145 0 0 0 3.747 3.247l38.617 18.129a4.571 4.571 0 0 0 4.524-.406 4.579 4.579 0 0 0 1.283-6.107 4.594 4.594 0 0 0-1.611-1.59l-33.843-19.634-13.54-37.893-21.428 10.769z"/>
    <path fill="url(#c)" d="M281.081 206.859l40.013 20.117 29.473 24.901a4.78 4.78 0 0 0 7.814-2.901 4.8 4.8 0 0 0-.988-3.748l-25.736-32.073-32.545-22.044-18.031 15.748z"/>
    <path fill="url(#d)" d="M274.371 217.577s5.306-14.851 27.512-24.605l-20.915-17.321a1.968 1.968 0 0 1-.584-2.203 1.961 1.961 0 0 1 1.889-1.271l5.774.169 3.031-12.398-15.723-.452a13.634 13.634 0 0 0-9.373 3.28l-21.504 18.436-11.923 9.974 8.943 11.227 6.926-3.662a4.838 4.838 0 0 1 5.32.538l20.627 18.288z"/>
    <path fill="url(#e)" d="M365.596 254.516c-.166 1.46-1.317 2.394-2.705 2.844a6.782 6.782 0 0 1-2.582.299c-1.547-.127-5.603-2.833-7.964-4.497a2.423 2.423 0 0 1-.726-3.178l2.103-3.789a2.423 2.423 0 0 1 2.241-1.271 2.419 2.419 0 0 1 2.116 1.47l.016.043s1.138-4.039 2.929-6.821c.538-.827 1.194-1.282 1.832-1.322 1.509-.102 2.896 2.095 2.202 7.109-.981 7.134.807 6.781.538 9.113z"/>
    <path fill="url(#f)" d="M365.596 254.516c-.166 1.46-1.318 2.394-2.705 2.844-.979-.108-2.644-.6-2.69-2.461-.124-4.681.772-7.888 1.345-11.445.409-2.532.239-4.753 1.315-5.16 1.509-.102 2.897 2.095 2.203 7.109-.987 7.134.801 6.781.532 9.113z"/>
    <path fill="url(#g)" d="M339.422 269.942c-1.227 3.565-3.241 6.132-5.095 6.363a2.066 2.066 0 0 1-1.449-.35c-2.152-1.435 1.882-10.861.446-13.823 0-.054.014-4.963 4.925-5.262 0 0 2.794.727 4.881 2.251a5.75 5.75 0 0 1 1.94 2.214c1.344 3.04-4.091 4.074-5.648 8.607z"/>
    <path fill="url(#h)" d="M339.421 269.942c-1.226 3.565-3.241 6.132-5.094 6.363-.538-.331-.882-.967-.823-2.054.269-4.848 2.259-6.019 4.984-10.234 1.813-2.806 2.862-5.959 4.642-4.898a5.751 5.751 0 0 1 1.939 2.213c1.345 3.043-4.09 4.078-5.648 8.61z"/>
    <path fill="url(#i)" d="M248.056 167.122s1.495 7.145.608 7.349c-.888.205-.961-4.16-3.752-4.379-2.792-.218-11.135-6.414-11.122-11.143.013-4.729 4.626-2.817 4.034-5.065-.591-2.249.778-8.556 6.875-8.26 6.097.296 5.11-4.998 7.725-2.865 2.614 2.133 3.808 10.147-.571 11.041-4.378.894-8.155 4.185-5.957 6.299 2.197 2.114 4.656 4.074 5.963 1.939 1.307-2.136 3.171-3.905 4.752-2.822 1.582 1.082 3.564 5.31 1.208 7.093-2.356 1.783-9.763.813-9.763.813z"/>
    <path fill="url(#j)" fill-rule="evenodd" d="M411.981 169.422s3.787 5.055 4.129 6.767c.341 1.713-7.015 15.011-10.78 16.244-3.765 1.234-.855-9.91 0-13.333.855-3.422-.855-9.678-.855-9.678h7.506z" clip-rule="evenodd"/>
    <path fill="url(#k)" fill-rule="evenodd" d="M378.563 170.623s.863 6.258.33 7.923c-.532 1.664-13.407 9.716-17.296 8.964-3.89-.751 4.053-9.08 6.455-11.657 2.402-2.578 3.943-8.887 3.943-8.887l6.568 3.657z" clip-rule="evenodd"/>
    <path fill="url(#l)" fill-rule="evenodd" d="M403.014 95.225l1.288 33.334 9.263 41.14s-2.843 4.654-8.959 3.458l-14.228-41.399-2.689-16.605-5.592 16.662-2.101 39.64s-6.019 3.487-10.952 0l-.341-45.549 7.388-37.89 26.923 7.21z" clip-rule="evenodd"/>
    <path fill="#F7C19C" fill-rule="evenodd" d="M377.864 71.024l-6.012 10.947a4.933 4.933 0 0 1-2.127 2.036c-4.513 2.248-18.575 9.277-19.008 9.82-.516.647-.841 4.595-1.648 4.595-.807 0-.164-2.588-1.326-2.846-1.162-.259-3.257 3.422-5.24 3.264-1.982-.16 3.691-5.077 3.691-5.077s-5.412 4.08-6.025 3.727c-.613-.352 5.185-5.135 5.185-5.135s-4.841 4.27-5.228 3.301c-.388-.969 4.572-4.532 4.572-4.532s-3.424 1.425-4.072.972c-.648-.452 5.11-3.231 8.015-4.335 2.905-1.104 17.025-11.712 17.025-11.712l4.691-11.52 7.507 6.495z" clip-rule="evenodd"/>
    <path fill="url(#m)" fill-rule="evenodd" d="M376.295 74.91s-.086 5.195-1.917 19.093c0 0 18.639 14.639 29.669 1.5l-1.329-19.944 3.228 4.688s6.242-.6 8.606-5.795l-7.762-15.864c-3.031-6.194-20.196-10.29-22.383-10.449-2.186-.159-5.425.302-7.498 4.04-2.074 3.737-11.34 19.165-11.34 19.165a14.9 14.9 0 0 0 9.473 5.561l1.253-1.995z" clip-rule="evenodd"/>
    <path fill="#F7C19C" fill-rule="evenodd" d="M413.955 75.559a58.963 58.963 0 0 0 2.553 6.31c2.42 5-1.883 21.95-1.017 23.267 2.724 4.217 1.7 6.813 1.229 7.613-.471.799-.352-2.529-1.127-3.329 0 0 .807 3.77 0 4.977-.807 1.206-1.514-5.386-1.514-5.386s.366 4.847-.627 6.089c-.992 1.241-.877-5.895-.877-5.895s-.772 4.513-1.576 4.632c-.804.118-.067-5.421-.398-5.882-.331-.46-1.708 2.305-2.843 1.963-1.135-.342 2.612-5.763 2.612-5.763l-.344-20.345-3.373-3.681a14.598 14.598 0 0 0 4.123-1.56c1.772-.955 3.179-3.01 3.179-3.01zM386.648 51.282s-.586 2.313 2.152 3.245c3.458 1.174 8.044-.436 6.151-4.866l-.597-2.962s1.866-3.006 1.64-8.052c-.226-5.047-9.612-9.827-12.356-5.324-2.743 4.502-1.148 16.1-.36 17.038.788.937 3.37.92 3.37.92z" clip-rule="evenodd"/>
    <path fill="url(#n)" fill-rule="evenodd" d="M392.398 38.418s-7.318.363-9.83-2.588l-.463 6.463s-1.866-3.062-1.503-5.758c0 0-4.223-3.937-2.184-8.165 2.038-4.228 7.063 0 7.063 0s10.629-2.916 12.888 4.446c2.259 7.363-3.305 10.503-2.345 12.611.96 2.109-.933 3.208-2.025 1.824-1.092-1.385 1.457-3.501 1.019-5.467-.438-1.966-2.62 2.405-3.497 2.405-.876 0 .877-5.771.877-5.771z" clip-rule="evenodd"/>
    <path fill="url(#o)" d="M404.485 207.303c.025-4.718-6.57-8.578-14.73-8.622-8.161-.044-14.797 3.744-14.823 8.462-.025 4.717 6.57 8.577 14.73 8.622 8.161.044 14.797-3.745 14.823-8.462z"/>
    <path fill="url(#p)" d="M378.679 176.143l-60.678 35.308c-2.558 1.486-6.724 1.486-9.29 0L174.5 133.867c-1.294-.749-1.939-1.732-1.936-2.712l-.027 9.425c0 .98.642 1.963 1.939 2.712l134.211 77.581c2.571 1.49 6.724 1.49 9.287 0l60.678-35.304c1.269-.741 1.907-1.708 1.909-2.674l.027-9.426c-.003.97-.643 1.937-1.909 2.674z"/>
    <path fill="#EAF0FE" d="M378.649 170.757c2.574 1.487 2.588 3.9.03 5.386l-60.678 35.308c-2.557 1.486-6.724 1.486-9.289 0L174.5 133.867c-2.571-1.487-2.584-3.9-.026-5.386l60.677-35.318c2.558-1.487 6.724-1.487 9.287 0l134.211 77.594z"/>
    <path fill="url(#q)" d="M367.826 168.28L249.263 99.742l-63.157 36.508 118.565 68.538 63.155-36.508z"/>
    <path fill="url(#r)" d="M229.201 105.281L202.162 120.9c-.677.39-1.705.433-2.291.094l-.164-.097c-.589-.339-.514-.932.164-1.322l27.036-15.641c.678-.39 1.705-.433 2.291-.094l.164.094c.592.35.517.946-.161 1.347z"/>
    <path fill="url(#s)" d="M217.192 165.159l-29.551-17.082v-3.597l29.551 17.081v3.598z"/>
    <path fill="url(#t)" d="M353.318 198.495l-5.22 3.016c-.398.229-.756.161-.909-.17l-1.159-2.515c-.269-.59.207-1.688.911-2.095l7.531-4.357c.705-.41 1.184.14.912 1.045l-1.162 3.853a2.207 2.207 0 0 1-.904 1.223z"/>
    <path fill="url(#u)" d="M281.46 121.923l-13.192 7.678-24.11-13.936 13.195-7.678 24.107 13.936z"/>
    <path fill="url(#v)" d="M257.402 109.767l-24.107-13.936-.032 13.546 24.109 13.936 13.193-7.678.032-13.545-13.195 7.677z"/>
    <path fill="url(#w)" d="M270.565 106.269l-13.193 7.678-24.088-13.925-.021 9.355 24.109 13.936 13.193-7.678v-9.366z"/>
    <path fill="url(#x)" d="M270.597 102.09l-13.195 7.677-24.107-13.936 13.192-7.677 24.11 13.936z"/>
    <path fill="url(#y)" d="M245.538 105.776l1.167-.681-.011 3.991-1.167.681.011-3.991z"/>
    <path fill="url(#z)" d="M242.792 104.188l1.167-.679 2.746 1.586-1.167.681-2.746-1.588z"/>
    <path fill="url(#A)" d="M245.538 105.776l-.011 3.991-2.749-1.588.014-3.991 2.746 1.588z"/>
    <path fill="url(#B)" d="M245.855 92.005v4.634l1.168-.68v-4.636a.44.44 0 0 1 .182-.403l-1.167.68a.444.444 0 0 0-.183.405z"/>
    <path fill="url(#C)" d="M258.335 95.535l-11.154-6.45c-.489-.269-.93-.306-1.248-.12l-1.17.678c.32-.186.761-.159 1.248.124l11.157 6.45a3.834 3.834 0 0 1 1.745 3.032v4.939l1.17-.679.014-4.942a3.854 3.854 0 0 0-1.762-3.032z"/>
    <path fill="url(#D)" d="M257.168 96.217a3.834 3.834 0 0 1 1.745 3.032v4.939l-1.614-.929v-4.635a1.382 1.382 0 0 0-.626-1.077l-10.186-5.903c-.347-.2-.629-.038-.632.36l-.013 4.635-1.614-.929V90.77c0-1.115.791-1.562 1.759-1.002l11.181 6.45z"/>
    <path fill="#fff" d="M231.665 113.459a.201.201 0 0 0-.185.096.195.195 0 0 0-.028.105c0 .036.01.072.03.104.231.369.575.923.605.939l23.461 13.651h-.016a.324.324 0 0 0 .353-.021 1.043 1.043 0 0 0 .47-.808.328.328 0 0 0-.14-.305l-23.461-13.65c-.027-.035-.659-.081-1.089-.111zm24.534 13.734h-.016.016zm-.035-.013h-.018.018zm-.188.013h.019-.019zm-.046.019h.016-.016zm-.427 1.11l.016.016-.016-.016zm-.025-.027v.016-.016zm-.067-.24a.486.486 0 0 0 0 .054c.001-.019.002-.038.006-.057l-.006.003zm.046.205a.081.081 0 0 1 0-.003v.003zm-.019-.041a.105.105 0 0 0 0-.002v.002zm-.021-.048v.027-.027zm0-.051V128.122v-.002z"/>
    <path fill="url(#E)" d="M247.746 124.062c.043-.17-.033-.345.045-.512.078-.167.269-.269.388-.426.118-.156.156-.404.285-.525a.25.25 0 0 1 .051-.04c.113-.065.245-.032.363-.1.118-.067.25-.269.366-.32a.12.12 0 0 1 .132-.008l.306.18c.097-.021.207-.067.269-.032l11.73 6.826c-.087-.051-.269.062-.372.036l-.029-.014-.293-.17h-.017c-.112.065-.244.251-.363.318-.118.067-.25.038-.363.102a.33.33 0 0 0-.054.038c-.126.124-.177.377-.285.539-.107.161-.306.256-.384.425-.078.17 0 .34-.046.512s-.21.388-.21.539c0 .15.172.183.213.301a.644.644 0 0 1 0 .186l.452.269c.064.038.11.132.174.17l-.629-.366a.295.295 0 0 0 .038.207h.016l-11.732-6.824h-.016c-.078-.078 0-.334-.049-.458-.048-.124-.21-.145-.21-.304s.186-.382.224-.549z"/>
    <path fill="url(#F)" d="M260.258 129.386a.225.225 0 0 0-.054.037c-.126.124-.177.377-.285.539-.107.161-.306.256-.384.425-.078.17 0 .34-.046.512s-.21.388-.21.539c0 .15.172.183.212.301.041.119-.029.383.049.461.078.078.269-.051.387-.025.119.027.159.224.285.197a.15.15 0 0 0 .054-.022c.113-.064.245-.25.363-.317.119-.068.25-.038.363-.103a.323.323 0 0 0 .054-.037c.126-.124.178-.377.282-.539.105-.161.31-.269.388-.425.078-.157 0-.34.046-.512.045-.172.209-.388.209-.539 0-.15-.172-.183-.212-.301-.041-.119.029-.383-.049-.458-.078-.075-.269.048-.387.021-.118-.026-.159-.223-.288-.196a.162.162 0 0 0-.051.021c-.113.065-.245.251-.363.318-.118.068-.261.038-.363.103z"/>
    <path fill="url(#G)" d="M310.457 135.216l-47.719 27.767 21.896 12.657 47.719-27.767-21.896-12.657z"/>
    <path fill="url(#H)" d="M284.647 159.296l-21.896-12.657-.013 4.39 21.896 12.657 81.115-47.197.011-4.39-81.113 47.197z"/>
    <path fill="#EAF0FE" d="M365.761 112.097l-3.053 1.774-19.916 11.591-58.147 33.832-21.896-12.657 58.147-33.832 19.919-11.59 3.05-1.775 21.896 12.657z"/>
    <path fill="url(#I)" d="M423.237 282.515l-4.293-2.48-.013 4.39 4.293 2.48 7.251-4.217.013-4.393-7.251 4.22z"/>
    <path fill="#EAF0FE" d="M430.488 278.295l-7.251 4.22-4.292-2.48 7.251-4.22 4.292 2.48z"/>
    <path fill="url(#J)" d="M417.74 287.109a1.742 1.742 0 0 1-1.022.183l-4.166-.449a1.541 1.541 0 0 1-.6-.183.667.667 0 0 1-.32-.348l-.791-2.423a.401.401 0 0 1-.019-.124v4.389a.405.405 0 0 0 .022.124l.788 2.424a.665.665 0 0 0 .32.347c.185.102.389.165.6.183l4.166.45c.351.045.708-.019 1.022-.183l8.577-4.99.013-4.392-8.59 4.992z"/>
    <path fill="url(#K)" d="M426.317 282.117l-8.577 4.992a1.742 1.742 0 0 1-1.022.183l-4.167-.449a1.541 1.541 0 0 1-.599-.183.685.685 0 0 1-.323-.348l-.788-2.423c-.07-.219.048-.439.315-.593l8.579-4.99 6.582 3.811z"/>
    <path fill="url(#L)" d="M429.144 293.917l-4.304-2.483-5.379 3.127-1.076-.628-8.58 4.99c-.269.154-.384.375-.314.593l.443 1.346c-2.197.943-4.427 1.91-6.767 2.925-17.864 7.75-38.111 16.535-58.014 19.513-22.824 3.415-40.761-1.592-54.83-15.304a77.237 77.237 0 0 0-12.475-9.964c-.054-.409-.352-.808-.893-1.123l-31.49-18.202c-1.202-.694-3.141-.694-4.335 0l-31.294 18.205c-1.191.694-1.186 1.82.016 2.515l31.498 18.207c1.2.692 3.139.692 4.333 0l30.274-17.615a74.514 74.514 0 0 1 12.494 9.927c11.756 11.458 26.043 17.111 43.407 17.111a92.665 92.665 0 0 0 13.698-1.077c20.25-3.03 40.67-11.89 58.687-19.708 2.749-1.193 5.347-2.318 7.916-3.412.138-.062.265-.147.376-.25l2.838.307c.351.044.708-.02 1.022-.183l8.577-4.993-1.202-.695 5.374-3.129z"/>
    <path fill="url(#M)" d="M331.861 326.787a46.046 46.046 0 0 1-16.315-2.884c-10.197-3.811-19.298-11.58-27.05-23.095-13.601-20.197-26.204-25.941-34.381-27.199-8.787-1.346-14.494 2.05-14.551 2.085a1.074 1.074 0 0 1-1.465-.364 1.086 1.086 0 0 1-.131-.807c.064-.275.234-.514.472-.666.253-.156 6.321-3.81 15.834-2.402 5.532.808 11.095 3.194 16.528 7.058 6.724 4.783 13.275 11.879 19.48 21.091 14.113 20.965 32.05 28.629 54.836 23.429 19.887-4.535 40.134-17.921 57.996-29.735 2.754-1.821 5.355-3.542 7.931-5.214a1.077 1.077 0 1 1 1.173 1.807c-2.569 1.67-5.167 3.388-7.918 5.205-18.02 11.914-38.437 25.417-58.703 30.038a61.82 61.82 0 0 1-13.736 1.653z"/>
    <path fill="#EAF0FE" d="M277.859 237.185v.094c0 .03 0 .054-.022.081a.499.499 0 0 1-.027.091c0 .025-.018.049-.029.073a3.51 3.51 0 0 1-.046.097.564.564 0 0 1-.04.067.889.889 0 0 1-.073.108 1.204 1.204 0 0 1-.081.102l-.021.022c-.04.046-.083.089-.129.129l-.094.076-.084.07-.11.072c-.04.024-.075.051-.118.076l-31.302 18.207a2.704 2.704 0 0 1-.29.145l-.086.038c-.079.035-.16.065-.242.091l-.089.03a1.646 1.646 0 0 1-.156.046l-.121.032-.17.038-.115.021a3.666 3.666 0 0 1-.347.049H243.012l-.153-.019-.137-.019-.164-.027-.127-.027-.191-.045-.104-.03a4.238 4.238 0 0 1-.329-.111l-.153-.064-.081-.035a2.516 2.516 0 0 1-.223-.119l-31.498-18.201a1.663 1.663 0 0 1-.893-1.094 1.234 1.234 0 0 1 0-.172l-.053 41.092c0 .458.301.915.903 1.265l31.498 18.208c.073.043.148.08.226.118l.078.032.137.062h.019c.105.041.215.078.328.111h.027l.078.018.191.046.051.014h.076l.161.027h.067a.817.817 0 0 0 .07 0l.153.019h1.055c.118 0 .234-.027.349-.049h.016l.1-.021.169-.038.121-.033.156-.045h.035l.054-.022c.084-.027.162-.059.24-.091l.088-.038a2.77 2.77 0 0 0 .288-.145l31.294-18.164.037-.022.078-.054.111-.073.086-.07.094-.075.019-.016c.04-.038.075-.076.11-.113l.021-.022.06-.07.021-.032c.024-.035.049-.07.07-.108l.032-.043a.096.096 0 0 1 0-.024c.016-.032.03-.065.043-.097l.027-.054v-.019c0-.032.019-.062.027-.091.008-.03.014-.043.016-.062a.03.03 0 0 0 0-.019v-.094a.353.353 0 0 0 0-.065v-.027l.043-41.1.03.092z"/>
    <path fill="url(#N)" d="M276.961 235.827c1.202.695 1.207 1.821 0 2.516l-31.278 18.207c-1.194.694-3.133.694-4.333 0l-31.498-18.207c-1.202-.695-1.207-1.821-.016-2.513l31.294-18.21c1.194-.694 3.133-.694 4.335 0l31.496 18.207z"/>
    <path fill="#DEE7FF" d="M277.848 237.279c0 .027 0 .054-.021.081a.73.73 0 0 1-.027.091c0 .024-.019.049-.03.073a3.51 3.51 0 0 1-.046.097.564.564 0 0 1-.04.067.889.889 0 0 1-.073.108c-.024.035-.051.067-.08.102l-.022.022c-.04.046-.083.089-.129.129l-.094.075-.083.071-.111.072c-.04.024-.075.051-.118.076l-31.291 18.207a2.704 2.704 0 0 1-.29.145l-.086.038c-.079.035-.16.065-.243.091l-.088.03a1.646 1.646 0 0 1-.156.046l-.121.032-.17.038-.115.021a3.666 3.666 0 0 1-.347.049H243.405v41.102h.619c.118 0 .234-.027.349-.048h.016l.1-.022.169-.037.121-.033.156-.045h.035l.054-.022c.084-.027.162-.059.24-.092l.088-.037c.099-.043.195-.091.288-.146l31.294-18.218.037-.021.078-.054.11-.073.087-.07.094-.075.019-.016c.04-.038.075-.076.11-.113l.021-.022.059-.07.022-.032c.024-.035.048-.07.07-.108l.032-.043a.096.096 0 0 1 0-.024c.016-.033.03-.065.043-.097l.027-.054v-.019c0-.032.019-.062.027-.091.008-.03.013-.044.016-.062a.06.06 0 0 0 0-.019v-.094a.704.704 0 0 0 0-.065v-.027l.043-41.1v.092c.027.032.024.064.019.094z"/>
    <path fill="url(#O)" d="M253.572 240.085c.594-.679 2.934-1.032 3.13-1.769.197-.738-1.847-1.506-2.055-2.249-.207-.743 1.345-1.82.732-2.502-.613-.681-2.996-.579-3.946-1.128-.949-.55-.82-1.944-1.955-2.281-1.135-.337-3.05.539-4.325.423-1.275-.116-2.606-1.304-3.892-1.188-1.285.116-1.882 1.465-3.058 1.81-1.129.331-3.397-.189-4.341.358-.944.547-.046 1.855-.621 2.51-.576.654-2.934 1.031-3.131 1.766-.196.736 1.848 1.506 2.055 2.252.207.746-1.331 1.82-.732 2.499.6.678 2.997.581 3.946 1.131.95.549.807 1.944 1.955 2.281 1.149.336 3.05-.539 4.325-.423 1.275.116 2.607 1.303 3.892 1.188 1.286-.116 1.883-1.468 3.058-1.81 1.13-.331 3.397.186 4.341-.361.944-.547.046-1.855.622-2.507zm-15.648.161c-3.048-1.761-3.064-4.61-.035-6.36 3.028-1.751 7.953-1.74 11 .021 3.047 1.761 3.063 4.608.035 6.358-3.029 1.751-7.953 1.743-10.99-.019h-.01z"/>
    <path fill="url(#P)" d="M241.221 261.72c.078.046.156.086.239.127l.084.035.164.07c.113.046.231.083.35.118l.112.03.202.051.135.027.172.03.145.021.164.016h.785l.218-.013h.116c.126-.014.25-.03.371-.051l.124-.025c.059-.013.121-.024.18-.04s.083-.021.127-.032l.169-.049.091-.032c.089-.03.175-.062.269-.097l.094-.04c.105-.049.21-.1.307-.157l32.033-18.638v-5.989.186c0 .03 0 .054-.021.081a.745.745 0 0 1-.027.092c0 .024-.019.048-.03.072-.011.024-.029.065-.045.097a.584.584 0 0 1-.041.068 1.82 1.82 0 0 1-.153.21l-.022.021c-.04.046-.083.089-.129.129l-.094.076-.083.07-.111.072c-.04.025-.075.052-.118.076l-31.315 18.218a2.704 2.704 0 0 1-.29.145l-.086.038c-.079.035-.16.065-.242.091l-.089.03a1.646 1.646 0 0 1-.156.046l-.121.032-.17.038-.115.021a3.666 3.666 0 0 1-.347.049H243.012l-.153-.019-.137-.019-.164-.027-.127-.027-.191-.045-.104-.03a4.238 4.238 0 0 1-.329-.111l-.153-.064-.081-.035a2.516 2.516 0 0 1-.223-.119l-31.498-18.201a1.663 1.663 0 0 1-.893-1.094 1.234 1.234 0 0 1 0-.172v5.984l32.262 18.659z"/>
    <path fill="url(#Q)" d="M241.221 292.266c.078.046.156.086.24.127l.083.035.164.07c.113.046.231.083.35.118l.113.03.201.051.135.027.172.03.145.021.164.016h.786l.217-.013h.116c.126 0 .25-.03.371-.051l.124-.025c.059 0 .121-.024.18-.04s.084-.022.127-.032l.169-.049.091-.032c.089-.03.175-.062.269-.097l.095-.04c.104-.049.209-.1.306-.157l32.033-18.637v-5.99.186c0 .03 0 .054-.021.081a.745.745 0 0 1-.027.092c0 .024-.019.048-.03.072a1.52 1.52 0 0 1-.045.097c-.017.033-.027.046-.041.068a1.457 1.457 0 0 1-.153.21l-.022.021c-.04.046-.083.089-.129.129l-.094.076-.107.083-.111.073c-.04.024-.075.051-.118.075l-31.291 18.207a2.712 2.712 0 0 1-.29.146l-.086.038a3.46 3.46 0 0 1-.242.091l-.089.03a1.392 1.392 0 0 1-.156.045l-.121.033-.17.038-.115.021a3.666 3.666 0 0 1-.347.049H243.012l-.153-.019-.137-.019-.164-.027-.127-.027-.19-.046-.105-.029a4.708 4.708 0 0 1-.329-.111l-.153-.064-.081-.035a2.808 2.808 0 0 1-.223-.119l-31.498-18.204a1.65 1.65 0 0 1-.893-1.096 1.206 1.206 0 0 1 0-.17v5.984l32.262 18.659z"/>
    <path fill="url(#R)" d="M362.708 113.872l-19.917 11.59-21.896-12.657 19.919-11.59 21.894 12.657z"/>
    <path fill="url(#S)" d="M367.627 103.681v.014a.681.681 0 0 1-.06.121l-.016.021a.785.785 0 0 1-.102.114c-.024.021-.059.043-.089.064-.029.022-.051.041-.08.059l-18.099 10.53c-.124.068-.257.12-.395.153l-.062.014a2.027 2.027 0 0 1-.446.051h-.017a2.04 2.04 0 0 1-.467-.054h-.019a1.622 1.622 0 0 1-.42-.161l-31.154-18.016a.643.643 0 0 1-.381-.539v1.858a.643.643 0 0 0 .381.539l31.162 18.013c.06.033.122.063.186.089l.158.054.076.019h.059l.126.021.127.014h.403l.164-.022.07-.019.062-.013.113-.03c.098-.031.193-.073.282-.124l18.099-10.532h.016l.064-.048a.598.598 0 0 0 .089-.068.44.44 0 0 0 .081-.086.074.074 0 0 0 0-.021l.016-.019.022-.038a.324.324 0 0 0 .034-.073.029.029 0 0 1 0-.013.275.275 0 0 0 .014-.049.29.29 0 0 0 0-.072v-1.872a.49.49 0 0 1 .003.121z"/>
    <path fill="#EAF0FE" d="M367.269 103.016c.506.291.509.765 0 1.058l-18.098 10.53a2.026 2.026 0 0 1-1.826 0l-31.143-18.013c-.509-.294-.511-.77 0-1.061L334.3 84.998a2.018 2.018 0 0 1 1.829 0l31.14 18.018z"/>
    <path fill="url(#T)" d="M330.79 91.568a1.721 1.721 0 0 0-1.724 0l-7.439 4.33c-.396.23-.393.604 0 .836l24.518 14.173a1.588 1.588 0 0 0 1.431 0l7.087-4.123a.809.809 0 0 0 0-1.414L330.79 91.568z"/>
    <path fill="url(#U)" d="M353.738 96.496a.162.162 0 0 1 .08.249.162.162 0 0 1-.08.058l-5.261 3.065a.574.574 0 0 1-.538 0l-9.069-5.24a.168.168 0 0 1-.08-.06.169.169 0 0 1-.03-.095c0-.034.011-.067.03-.095a.168.168 0 0 1 .08-.06l5.266-3.065a.594.594 0 0 1 .538 0l9.064 5.243z"/>
    <path fill="url(#V)" d="M348.746 91.716l-30.237-17.474a.87.87 0 0 0-.876-.086l-1.413.824a.867.867 0 0 1 .877.083l30.229 17.475a2.72 2.72 0 0 1 1.229 2.133l-.059 21.586a.878.878 0 0 1-.361.792l1.412-.821a.872.872 0 0 0 .361-.792l.059-21.587a2.725 2.725 0 0 0-1.221-2.133z"/>
    <path fill="url(#W)" d="M347.326 92.538a2.72 2.72 0 0 1 1.229 2.133l-.059 21.586c0 .784-.557 1.099-1.24.706L317.03 99.489a2.717 2.717 0 0 1-1.229-2.13l.059-21.587c0-.784.557-1.102 1.237-.709l30.229 17.475z"/>
    <path fill="url(#X)" d="M166.219 158.058l-24.556-14.195-20.296 11.733 24.554 14.192 20.298-11.73z"/>
    <path fill="url(#Y)" d="M151.765 116.896l-.094 32.927c0 2.499-1.646 4.995-4.922 6.899-6.595 3.84-17.324 3.84-23.964 0-3.341-1.934-5.008-4.468-5-7.002l.091-32.927c0 2.532 1.662 5.066 5.003 7.002 6.638 3.838 17.366 3.838 23.961 0 3.279-1.907 4.92-4.4 4.925-6.899z"/>
    <path fill="url(#Z)" d="M151.764 116.89c.015-5.427-7.559-9.848-16.917-9.874-9.358-.026-16.956 4.352-16.972 9.779-.015 5.427 7.559 9.848 16.917 9.874 9.359.026 16.957-4.352 16.972-9.779z"/>
    <path fill="url(#aa)" d="M130.829 115.716s-20.441-6.821-12.014-24.056c8.426-17.235-4.484-24.417 6.455-29.803 10.938-5.386-5.398-18.132 4.472-20.466 9.871-2.335 4.304 14.542 13.817 17.953 9.513 3.413-6.813 13.964 1.076 19.099 7.888 5.135 8.964 37.634-13.806 37.273z"/>
    <path fill="url(#ab)" d="M144.366 122.316c-.885.509-1.818.925-2.787 1.245a19.724 19.724 0 0 1-3.542.821 22.82 22.82 0 0 1-8.289-.361 17.333 17.333 0 0 1-3.19-1.077 13.724 13.724 0 0 1-1.219-.625c-2.85-1.648-4.168-3.843-3.951-5.997.181-1.834 1.477-3.636 3.887-5.039 3.053-1.777 7.222-2.517 11.213-2.221.14 0 .269.021.419.035 2.706.248 5.307.977 7.397 2.186 2.152 1.242 3.429 2.804 3.833 4.417.583 2.345-.67 4.812-3.771 6.616z"/>
    <path fill="url(#ac)" d="M168.123 99.2c-6.813-.358 2.69 10.056-5.022 11.311-7.711 1.255-13.448-4.309-13.805 1.796a6.8 6.8 0 0 1-1.16 3.39c-1.777 2.728-5.11 4.611-6.557 7.864a19.724 19.724 0 0 1-3.542.821 22.82 22.82 0 0 1-8.289-.361 85.434 85.434 0 0 1 6.74-14.97 6.18 6.18 0 0 1 .269-.444c5.411-9.337 14.015-19.796 26-21.622 22.399-3.404 12.179 12.576 5.366 12.215z"/>
    <path fill="url(#ad)" d="M138.037 124.382a22.82 22.82 0 0 1-8.289-.361 17.333 17.333 0 0 1-3.19-1.077 102.516 102.516 0 0 0-5.167-6.622c-3.701-4.349-8.085-8.617-12.256-10.476-10.043-4.489.177-12.207-9.505-17.954-9.683-5.746-10.04-17.054 1.613-17.054 11.654 0 1.437 7.899 16.636 11.31 15.199 3.412-.856 9.515 11.866 17.416 3.572 2.219 5.737 5.493 6.993 9.054.057.158.11.317.164.479 1.786 5.394 1.587 11.361 1.135 15.285z"/>
    <path stroke="url(#ae)" stroke-miterlimit="10" d="M269.766 13.925a1.74 1.74 0 0 1 .785 1.36l-.04 22.467c0 .499-.355.7-.788.45l-19.285-11.146a1.736 1.736 0 0 1-.782-1.347l.037-22.491c0-.498.355-.7.791-.45l19.282 11.157z"/>
    <path fill="url(#af)" d="M283.991 11.24a1.735 1.735 0 0 1 .783 1.36l-.04 13.777c0 .498-.355.7-.791.45l-19.279-11.152a1.73 1.73 0 0 1-.786-1.346l.041-13.772c0-.498.355-.7.788-.45l19.284 11.133z"/>
    <path fill="#EAF0FE" d="M364.846 143.252v.097l-.016.051-.016.04-.025.051-.024.038-.038.059-.045.057a.925.925 0 0 1-.124.113l-.046.038-.062.04-.061.04-17.157 9.983c-.052.03-.105.057-.159.081l-.048.022-.162.062-.048.016-.086.027-.068.016-.091.021h-.065c-.061 0-.126.022-.191.027H345.578l-.089-.013-.07-.016-.105-.025-.057-.016-.18-.059-.086-.038-.043-.019a1.04 1.04 0 0 1-.124-.064l-17.267-9.983a.898.898 0 0 1-.489-.601.492.492 0 0 1 0-.094l-.022 22.535a.85.85 0 0 0 .495.695l17.27 9.982.124.065.043.019.075.032c.059.024.121.043.18.062h.059l.105.024H345.467l.089.017h.732l.191-.027h.053l.094-.019.068-.019.086-.024h.048l.132-.051.046-.019a1.24 1.24 0 0 0 .158-.081l17.182-9.983h.021l.043-.027.059-.04.049-.038.051-.043.059-.062h.013l.033-.038v-.016l.04-.059.016-.024v-.014a.398.398 0 0 0 .024-.051l.017-.032c0-.016 0-.033.013-.049s0-.024 0-.035a.486.486 0 0 0 0-.054.204.204 0 0 0 0-.035l.021-22.534c.044-.046.041-.03.041-.008z"/>
    <path fill="#DEE7FF" d="M364.84 143.3v.043l-.016.051-.016.041-.024.051-.024.038-.038.059-.046.056a.77.77 0 0 1-.123.113l-.046.038-.062.041-.062.04-17.157 9.983a1.974 1.974 0 0 1-.159.081l-.048.021-.156.067-.048.017-.086.026-.068.017-.091.021h-.065c-.062 0-.126.022-.191.027h-.382v22.537h.361l.191-.026h.054l.094-.019.067-.019.086-.024h.048l.132-.052.046-.018c.055-.024.108-.051.159-.081l17.175-10.018h.022l.043-.027.059-.04.049-.038.051-.043.059-.062h.013l.033-.038v-.016l.04-.059.016-.024v-.014a.398.398 0 0 0 .024-.051l.016-.032c0-.017 0-.033.014-.049.013-.016 0-.024 0-.035a.486.486 0 0 0 0-.054.204.204 0 0 0 0-.035l.021-22.534v.048c0 .016.038-.027.035-.008z"/>
    <path fill="url(#ag)" d="M347.24 164.386a1.507 1.507 0 0 1-.164.086l-.052.022-.137.051H346.836l-.091.024-.07.019-.097.021h-.056c-.065 0-.132.022-.199.027H345.551l-.095-.016h-.072l-.11-.027h-.046a1.98 1.98 0 0 1-.188-.064l-.081-.035-.043-.022a.984.984 0 0 1-.129-.067l-17.709-10.233v1.998a.85.85 0 0 0 .495.694l17.27 9.983c.041.022.081.043.124.062l.043.019.075.035c.059.022.121.043.18.059h.06l.105.027H345.499l.089.016H346.325c.065 0 .127 0 .191-.024h.054l.094-.021.067-.017.086-.024h.049c.045-.014.089-.03.132-.048l.045-.022a1.67 1.67 0 0 0 .159-.078l17.144-9.991h.021l.043-.029.059-.041a.3.3 0 0 0 .049-.037l.051-.041.059-.059.013-.014.033-.037v-.019l.04-.059.016-.025a.505.505 0 0 0 .024-.053l.016-.03s0-.035.014-.051c.013-.016 0-.022 0-.033a.434.434 0 0 0 0-.051.204.204 0 0 0 0-.035v-2.019l-17.544 10.179z"/>
    <path fill="url(#ah)" d="M364.347 142.503c.659.382.661.999 0 1.379l-17.157 9.983a2.629 2.629 0 0 1-2.378 0l-17.267-9.983c-.659-.38-.662-.997 0-1.379l17.168-9.983a2.616 2.616 0 0 1 2.374 0l17.26 9.983z"/>
    <path fill="url(#ai)" d="M340.989 140.744l.702-.406c.885.35 1.557.269 2.052 0 .772-.447 1.649-1.185 2.491-1.67a2.915 2.915 0 0 1 2.958 0l.576.334-.78.453-.409-.237a1.37 1.37 0 0 0-1.506 0c-.75.433-1.649 1.171-2.472 1.645a2.749 2.749 0 0 1-2.42.156h-.019c.586.539.393 1.015-.269 1.406-.82.474-2.098.994-2.848 1.427-.538.31-.474.584.024.87l.409.237-.805.447-.575-.334c-.877-.506-.987-1.142-.019-1.702.839-.487 2.114-.994 2.886-1.441.495-.293.632-.676.024-1.185z"/>
    <path fill="url(#aj)" d="M348.124 146.052c-.769.447-1.648 1.185-2.487 1.67a2.918 2.918 0 0 1-2.959 0l-.578-.334.78-.452.409.236a1.374 1.374 0 0 0 1.506.014c.753-.434 1.651-1.171 2.471-1.645a2.787 2.787 0 0 1 2.421-.162l.019-.013c-.597-.539-.401-1.008.269-1.398.82-.474 2.095-.994 2.848-1.427.538-.31.474-.585-.024-.87l-.409-.237.78-.453.578.334c.874.507.987 1.142.019 1.702-.842.488-2.117.994-2.888 1.441-.495.285-.632.676-.025 1.185l-.702.407c-.868-.361-1.533-.283-2.028.002z"/>
    <path fill="#EAF0FE" d="M331.075 174.541a.244.244 0 0 1 0 .054v.091c0 .017-.013.03-.019.044l-.024.051a.27.27 0 0 0-.021.037l-.041.06a.46.46 0 0 1-.045.054.029.029 0 0 1 0 .013l-.07.07-.051.043-.049.038-.059.04-.065.041-17.157 9.982a1.24 1.24 0 0 1-.158.081l-.049.019-.131.051-.049.016-.086.025-.064.018-.095.019h-.061l-.191.027H311.85l-.089-.016h-.07l-.102-.024-.059-.016a2.119 2.119 0 0 1-.18-.062l-.084-.035-.043-.019c-.043-.022-.083-.041-.123-.065l-17.27-9.983a.902.902 0 0 1-.49-.6.492.492 0 0 1 0-.094l-.024 11.485a.842.842 0 0 0 .498.692l17.267 9.983c.04.024.081.046.123.065l.044.018.075.035c.059.022.118.044.18.06H311.559l.105.027H311.734l.089.016H312.56a1.54 1.54 0 0 0 .191-.027h.054l.091-.022.067-.016.087-.024h.048c.046-.014.089-.032.132-.049l.048-.021c.054-.024.107-.051.159-.081l17.157-9.983h.019l.043-.029.062-.041.045-.037a.566.566 0 0 0 .054-.043l.062-.06v-.013l.032-.038.014-.019a.392.392 0 0 0 .037-.059.091.091 0 0 0 .016-.024l.025-.051.013-.03a.434.434 0 0 0 0-.051.103.103 0 0 0 0-.035.244.244 0 0 0 0-.054v-.048l.024-11.483a.216.216 0 0 1 .035-.003z"/>
    <path fill="url(#ak)" d="M331.075 182.321v-2.082a.2.2 0 0 1 0 .049.244.244 0 0 1 0 .054v.091l-.018.041-.025.054a.27.27 0 0 0-.021.037l-.041.06c0 .018-.029.035-.045.053l-.07.07-.051.044-.049.037-.059.041-.064.04-17.198 10.007c-.051.03-.102.054-.158.081l-.049.019-.132.051-.048.016-.086.024-.065.019-.094.019-.062.013-.191.027H311.81l-.089-.016-.07-.013-.102-.024-.059-.017c-.062-.019-.121-.037-.181-.062l-.083-.035-.043-.018-.124-.065-17.27-9.983a.913.913 0 0 1-.489-.6.503.503 0 0 1 0-.095v2.082l17.719 10.233c.042.025.085.047.129.068l.043.018.089.038c.062.024.126.046.191.065l.059.016.108.027.075.016.091.016h.772c.067 0 .135-.016.199-.029h.068l.096-.019.07-.019.089-.027.051-.016.14-.054.048-.022c.057-.024.113-.054.167-.083"/>
    <path fill="url(#al)" d="M330.583 173.798c.659.38.662.999 0 1.379l-17.157 9.982a2.609 2.609 0 0 1-2.375 0l-17.27-9.982c-.659-.38-.661-.997 0-1.379l17.157-9.983a2.63 2.63 0 0 1 2.378 0l17.267 9.983z"/>
    <path fill="#EAF0FE" d="M307.038 174.417l-1.145-.662-.124-2.693 4.666.078 1.146.662-4.677-.083.134 2.698zM319.41 172.335l.904.523-13.733 4.785-.896-.517 13.725-4.791zM318.553 178.441l-.146-2.693 1.146.662.143 2.693-4.686-.078-1.145-.662 4.688.078z"/>
    <path fill="url(#am)" d="M159.022 274.17c-.054.032-.111.059-.167.086l-.051.019a1.957 1.957 0 0 1-.137.054H158.616l-.089.027-.07.018-.1.022h-.056l-.202.027H157.327l-.094-.016h-.073l-.11-.025h-.059a1.964 1.964 0 0 1-.188-.061l-.078-.035-.046-.022a.984.984 0 0 1-.129-.067l-17.708-10.234v1.999a.84.84 0 0 0 .497.692l17.267 9.983c.04.024.082.045.124.064l.043.019.075.035c.059.023.12.043.181.059h.043l.105.027H157.247l.088.016H158.072c.064-.005.128-.013.191-.027h.057l.091-.021.067-.016.086-.025h.049c.046 0 .089-.032.132-.048l.048-.022a1.97 1.97 0 0 0 .159-.08l17.154-9.983h.022l.043-.03.061-.04.046-.038.051-.043.062-.059.032-.038v-.019a.297.297 0 0 0 .041-.059l.016-.024a.033.033 0 0 0 0-.014.411.411 0 0 0 .027-.051.07.07 0 0 1 0-.029.45.45 0 0 0 0-.052v-.035a.486.486 0 0 0 0-.054v-2.052l-17.485 10.172z"/>
    <path fill="url(#an)" d="M176.134 252.287c.659.382.662.999 0 1.379l-17.157 9.982a2.609 2.609 0 0 1-2.375 0l-17.262-9.985c-.659-.38-.661-.997 0-1.379l17.157-9.983a2.629 2.629 0 0 1 2.378 0l17.259 9.986z"/>
    <defs>
        <linearGradient id="a" x1="172.563" x2="380.588" y1="206.283" y2="206.283" gradientUnits="userSpaceOnUse">
            <stop stop-color="#E1ECFF"/>
            <stop offset="1" stop-color="#fff"/>
        </linearGradient>
        <linearGradient id="b" x1="289.492" x2="356.934" y1="219.874" y2="279.168" gradientUnits="userSpaceOnUse">
            <stop stop-color="#253C6F"/>
            <stop offset="1" stop-color="#3068E8"/>
        </linearGradient>
        <linearGradient id="c" x1="60486.8" x2="76047.2" y1="47530.7" y2="64648.6" gradientUnits="userSpaceOnUse">
            <stop stop-color="#253C6F"/>
            <stop offset="1" stop-color="#3068E8"/>
        </linearGradient>
        <linearGradient id="d" x1="232.547" x2="301.883" y1="188.531" y2="188.531" gradientUnits="userSpaceOnUse">
            <stop stop-color="#3158D3"/>
            <stop offset="1" stop-color="#306EF3"/>
        </linearGradient>
        <linearGradient id="e" x1="14131.9" x2="14893.8" y1="18093.7" y2="18093.7" gradientUnits="userSpaceOnUse">
            <stop stop-color="#253C6F"/>
            <stop offset="1" stop-color="#3068E8"/>
        </linearGradient>
        <linearGradient id="f" x1="5770.69" x2="5880.64" y1="17788.4" y2="17788.4" gradientUnits="userSpaceOnUse">
            <stop stop-color="#3158D3"/>
            <stop offset="1" stop-color="#306EF3"/>
        </linearGradient>
        <linearGradient id="g" x1="11967.5" x2="12600.7" y1="19515.9" y2="19515.9" gradientUnits="userSpaceOnUse">
            <stop stop-color="#253C6F"/>
            <stop offset="1" stop-color="#3068E8"/>
        </linearGradient>
        <linearGradient id="h" x1="10895.3" x2="11411.6" y1="17547.6" y2="17547.6" gradientUnits="userSpaceOnUse">
            <stop stop-color="#3158D3"/>
            <stop offset="1" stop-color="#306EF3"/>
        </linearGradient>
        <linearGradient id="i" x1="11595" x2="10776.7" y1="18306" y2="12431" gradientUnits="userSpaceOnUse">
            <stop stop-color="#253C6F"/>
            <stop offset="1" stop-color="#3068E8"/>
        </linearGradient>
        <linearGradient id="j" x1="15355.4" x2="15355.4" y1="15299.1" y2="16747.2" gradientUnits="userSpaceOnUse">
            <stop stop-color="#253C6F"/>
            <stop offset="1" stop-color="#3068E8"/>
        </linearGradient>
        <linearGradient id="k" x1="19465.2" x2="19465.2" y1="13651.6" y2="14942.2" gradientUnits="userSpaceOnUse">
            <stop stop-color="#253C6F"/>
            <stop offset="1" stop-color="#3068E8"/>
        </linearGradient>
        <linearGradient id="l" x1="49578" x2="53772.3" y1="29043.7" y2="74161.4" gradientUnits="userSpaceOnUse">
            <stop stop-color="#253C6F"/>
            <stop offset="1" stop-color="#3068E8"/>
        </linearGradient>
        <linearGradient id="m" x1="50111.3" x2="59032.1" y1="14684.8" y2="14684.8" gradientUnits="userSpaceOnUse">
            <stop stop-color="#3158D3"/>
            <stop offset="1" stop-color="#306EF3"/>
        </linearGradient>
        <linearGradient id="n" x1="23692.8" x2="20061.8" y1="2977.28" y2="-1200.12" gradientUnits="userSpaceOnUse">
            <stop stop-color="#253C6F"/>
            <stop offset="1" stop-color="#3068E8"/>
        </linearGradient>
        <linearGradient id="o" x1="16358.8" x2="20810.9" y1="23329" y2="23141.4" gradientUnits="userSpaceOnUse">
            <stop stop-color="#E1ECFF"/>
            <stop offset="1" stop-color="#fff"/>
        </linearGradient>
        <linearGradient id="p" x1="172.537" x2="380.588" y1="176.566" y2="176.566" gradientUnits="userSpaceOnUse">
            <stop stop-color="#BBD0FE"/>
            <stop offset=".57" stop-color="#E0EBFF"/>
            <stop offset="1" stop-color="#BBD0FE"/>
        </linearGradient>
        <linearGradient id="q" x1="80462.8" x2="117790" y1="51950.8" y2="70942.9" gradientUnits="userSpaceOnUse">
            <stop stop-color="#3158D3"/>
            <stop offset="1" stop-color="#306EF3"/>
        </linearGradient>
        <linearGradient id="r" x1="12301.7" x2="15748.9" y1="7456.82" y2="7456.82" gradientUnits="userSpaceOnUse">
            <stop stop-color="#3158D3"/>
            <stop offset="1" stop-color="#306EF3"/>
        </linearGradient>
        <linearGradient id="s" x1="14466.8" x2="13148.9" y1="13185.8" y2="11773.3" gradientUnits="userSpaceOnUse">
            <stop stop-color="#3158D3"/>
            <stop offset="1" stop-color="#306EF3"/>
        </linearGradient>
        <linearGradient id="t" x1="9324.66" x2="9988.66" y1="7133.93" y2="6897.47" gradientUnits="userSpaceOnUse">
            <stop stop-color="#3158D3"/>
            <stop offset="1" stop-color="#306EF3"/>
        </linearGradient>
        <linearGradient id="u" x1="19897.5" x2="23336.9" y1="7912.68" y2="12371" gradientUnits="userSpaceOnUse">
            <stop stop-color="#253C6F"/>
            <stop offset="1" stop-color="#3068E8"/>
        </linearGradient>
        <linearGradient id="v" x1="233.263" x2="270.597" y1="109.571" y2="109.571" gradientUnits="userSpaceOnUse">
            <stop stop-color="#5781DB"/>
            <stop offset="1" stop-color="#A0BDFD"/>
        </linearGradient>
        <linearGradient id="w" x1="19765.7" x2="24939.2" y1="9759.42" y2="9759.42" gradientUnits="userSpaceOnUse">
            <stop stop-color="#BBD0FE"/>
            <stop offset=".57" stop-color="#E0EBFF"/>
            <stop offset="1" stop-color="#BBD0FE"/>
        </linearGradient>
        <linearGradient id="x" x1="22740.3" x2="22414.4" y1="8920.14" y2="6670.89" gradientUnits="userSpaceOnUse">
            <stop stop-color="#3158D3"/>
            <stop offset="1" stop-color="#306EF3"/>
        </linearGradient>
        <linearGradient id="y" x1="909.376" x2="947.598" y1="1929.2" y2="1939.67" gradientUnits="userSpaceOnUse">
            <stop stop-color="#3158D3"/>
            <stop offset="1" stop-color="#306EF3"/>
        </linearGradient>
        <linearGradient id="z" x1="2430.6" x2="2487.54" y1="984.713" y2="984.713" gradientUnits="userSpaceOnUse">
            <stop stop-color="#3158D3"/>
            <stop offset="1" stop-color="#306EF3"/>
        </linearGradient>
        <linearGradient id="A" x1="1817.75" x2="1748.45" y1="2383.82" y2="2325.39" gradientUnits="userSpaceOnUse">
            <stop stop-color="#3158D3"/>
            <stop offset="1" stop-color="#306EF3"/>
        </linearGradient>
        <linearGradient id="B" x1="1021.82" x2="983.247" y1="2133.07" y2="2043.45" gradientUnits="userSpaceOnUse">
            <stop stop-color="#253C6F"/>
            <stop offset="1" stop-color="#3068E8"/>
        </linearGradient>
        <linearGradient id="C" x1="9756.08" x2="8536.81" y1="5802.31" y2="4970.57" gradientUnits="userSpaceOnUse">
            <stop stop-color="#253C6F"/>
            <stop offset="1" stop-color="#3068E8"/>
        </linearGradient>
        <linearGradient id="D" x1="8574.56" x2="9497.98" y1="4923.39" y2="6063.62" gradientUnits="userSpaceOnUse">
            <stop stop-color="#253C6F"/>
            <stop offset="1" stop-color="#3068E8"/>
        </linearGradient>
        <linearGradient id="E" x1="247.539" x2="261.683" y1="127.237" y2="127.237" gradientUnits="userSpaceOnUse">
            <stop stop-color="#28C4FF"/>
            <stop offset="1" stop-color="#34EDCB"/>
        </linearGradient>
        <linearGradient id="F" x1="1946.31" x2="1975.48" y1="1799.08" y2="1821.1" gradientUnits="userSpaceOnUse">
            <stop stop-color="#28C4FF"/>
            <stop offset="1" stop-color="#34EDCB"/>
        </linearGradient>
        <linearGradient id="G" x1="38170.9" x2="49139.5" y1="28136.1" y2="18135.3" gradientUnits="userSpaceOnUse">
            <stop stop-color="#253C6F"/>
            <stop offset="1" stop-color="#3068E8"/>
        </linearGradient>
        <linearGradient id="H" x1="262.738" x2="365.76" y1="137.893" y2="137.893" gradientUnits="userSpaceOnUse">
            <stop stop-color="#BBD0FE"/>
            <stop offset=".3" stop-color="#E0EBFF"/>
            <stop offset=".71" stop-color="#BBD0FE"/>
        </linearGradient>
        <linearGradient id="I" x1="424.966" x2="424.562" y1="277.848" y2="283.369" gradientUnits="userSpaceOnUse">
            <stop stop-color="#CBDDFE"/>
            <stop offset="1" stop-color="#EFF5FF"/>
        </linearGradient>
        <linearGradient id="J" x1="19383" x2="18775.8" y1="10405" y2="10826.2" gradientUnits="userSpaceOnUse">
            <stop stop-color="#253C6F"/>
            <stop offset="1" stop-color="#3068E8"/>
        </linearGradient>
        <linearGradient id="K" x1="19932.3" x2="19261.8" y1="9454.69" y2="10204.7" gradientUnits="userSpaceOnUse">
            <stop stop-color="#3158D3"/>
            <stop offset="1" stop-color="#306EF3"/>
        </linearGradient>
        <linearGradient id="L" x1="324480" x2="47787.5" y1="55371.8" y2="49421.6" gradientUnits="userSpaceOnUse">
            <stop stop-color="#E1ECFF"/>
            <stop offset="1" stop-color="#fff"/>
        </linearGradient>
        <linearGradient id="M" x1="94783.5" x2="208352" y1="62060.1" y2="62060.1" gradientUnits="userSpaceOnUse">
            <stop stop-color="#3158D3"/>
            <stop offset="1" stop-color="#306EF3"/>
        </linearGradient>
        <linearGradient id="N" x1="40804.2" x2="40122.5" y1="38361.9" y2="35227.9" gradientUnits="userSpaceOnUse">
            <stop stop-color="#3158D3"/>
            <stop offset="1" stop-color="#306EF3"/>
        </linearGradient>
        <linearGradient id="O" x1="13855.1" x2="16489.6" y1="13776.5" y2="13776.5" gradientUnits="userSpaceOnUse">
            <stop stop-color="#28C4FF"/>
            <stop offset="1" stop-color="#34EDCB"/>
        </linearGradient>
        <linearGradient id="P" x1="30063.3" x2="47724.4" y1="23572.9" y2="23572.9" gradientUnits="userSpaceOnUse">
            <stop stop-color="#5781DB"/>
            <stop offset="1" stop-color="#A0BDFD"/>
        </linearGradient>
        <linearGradient id="Q" x1="30063.3" x2="47724.4" y1="26458.3" y2="26458.3" gradientUnits="userSpaceOnUse">
            <stop stop-color="#3158D3"/>
            <stop offset="1" stop-color="#306EF3"/>
        </linearGradient>
        <linearGradient id="R" x1="40121" x2="33691" y1="10249" y2="11334" gradientUnits="userSpaceOnUse">
            <stop stop-color="#CBDDFE"/>
            <stop offset="1" stop-color="#EFF5FF"/>
        </linearGradient>
        <linearGradient id="S" x1="43344.4" x2="53331.8" y1="8236.23" y2="8236.23" gradientUnits="userSpaceOnUse">
            <stop stop-color="#BBD0FE"/>
            <stop offset=".3" stop-color="#E0EBFF"/>
            <stop offset=".71" stop-color="#BBD0FE"/>
        </linearGradient>
        <linearGradient id="T" x1="34114.1" x2="32072.6" y1="7497.01" y2="7525.85" gradientUnits="userSpaceOnUse">
            <stop stop-color="#253C6F"/>
            <stop offset="1" stop-color="#3068E8"/>
        </linearGradient>
        <linearGradient id="U" x1="15444.5" x2="14531.8" y1="3190.91" y2="3203.92" gradientUnits="userSpaceOnUse">
            <stop stop-color="#253C6F"/>
            <stop offset="1" stop-color="#3068E8"/>
        </linearGradient>
        <linearGradient id="V" x1="31089.6" x2="31836.4" y1="14957.4" y2="14671.3" gradientUnits="userSpaceOnUse">
            <stop stop-color="#3158D3"/>
            <stop offset="1" stop-color="#306EF3"/>
        </linearGradient>
        <linearGradient id="W" x1="35818.8" x2="24421.6" y1="13741.7" y2="15257.6" gradientUnits="userSpaceOnUse">
            <stop stop-color="#253C6F"/>
            <stop offset="1" stop-color="#3068E8"/>
        </linearGradient>
        <linearGradient id="X" x1="4947.42" x2="12426.9" y1="15242.9" y2="15242.9" gradientUnits="userSpaceOnUse">
            <stop stop-color="#E1ECFF"/>
            <stop offset="1" stop-color="#fff"/>
        </linearGradient>
        <linearGradient id="Y" x1="117.785" x2="151.765" y1="138.2" y2="138.2" gradientUnits="userSpaceOnUse">
            <stop stop-color="#BBD0FE"/>
            <stop offset=".57" stop-color="#E0EBFF"/>
        </linearGradient>
        <linearGradient id="Z" x1="4554.81" x2="2992.41" y1="15956.6" y2="15513.4" gradientUnits="userSpaceOnUse">
            <stop stop-color="#CBDDFE"/>
            <stop offset="1" stop-color="#EFF5FF"/>
        </linearGradient>
        <linearGradient id="aa" x1="4858.87" x2="-74.317" y1="21860.3" y2="11080.6" gradientUnits="userSpaceOnUse">
            <stop stop-color="#3158D3"/>
            <stop offset="1" stop-color="#306EF3"/>
        </linearGradient>
        <linearGradient id="ab" x1="4361.35" x2="4352.3" y1="6911.8" y2="7411.47" gradientUnits="userSpaceOnUse">
            <stop stop-color="#253C6F"/>
            <stop offset="1" stop-color="#3068E8"/>
        </linearGradient>
        <linearGradient id="ac" x1="7836.68" x2="9553.03" y1="18449.3" y2="15377.5" gradientUnits="userSpaceOnUse">
            <stop stop-color="#3158D3"/>
            <stop offset="1" stop-color="#306EF3"/>
        </linearGradient>
        <linearGradient id="ad" x1="6357.21" x2="-1191.28" y1="24179" y2="12276.8" gradientUnits="userSpaceOnUse">
            <stop stop-color="#3158D3"/>
            <stop offset="1" stop-color="#306EF3"/>
        </linearGradient>
        <linearGradient id="ae" x1="12454.3" x2="14098.6" y1="2716.98" y2="2716.98" gradientUnits="userSpaceOnUse">
            <stop stop-color="#28C4FF"/>
            <stop offset="1" stop-color="#34EDCB"/>
        </linearGradient>
        <linearGradient id="af" x1="14363.5" x2="14927.1" y1="1470.36" y2="175.462" gradientUnits="userSpaceOnUse">
            <stop stop-color="#3158D3"/>
            <stop offset="1" stop-color="#306EF3"/>
        </linearGradient>
        <linearGradient id="ag" x1="35858.9" x2="35863.3" y1="7184.04" y2="8331.73" gradientUnits="userSpaceOnUse">
            <stop stop-color="#5781DB"/>
            <stop offset="1" stop-color="#A0BDFD"/>
        </linearGradient>
        <linearGradient id="ah" x1="35524.9" x2="35799.1" y1="12823.5" y2="10837.9" gradientUnits="userSpaceOnUse">
            <stop stop-color="#3158D3"/>
            <stop offset="1" stop-color="#306EF3"/>
        </linearGradient>
        <linearGradient id="ai" x1="11606.1" x2="12174.7" y1="3900.09" y2="3900.09" gradientUnits="userSpaceOnUse">
            <stop stop-color="#CBDDFE"/>
            <stop offset="1" stop-color="#EFF5FF"/>
        </linearGradient>
        <linearGradient id="aj" x1="11807" x2="12374.6" y1="3976.17" y2="3976.17" gradientUnits="userSpaceOnUse">
            <stop stop-color="#CBDDFE"/>
            <stop offset="1" stop-color="#EFF5FF"/>
        </linearGradient>
        <linearGradient id="ak" x1="28506.6" x2="33814.9" y1="8907.14" y2="8907.14" gradientUnits="userSpaceOnUse">
            <stop stop-color="#28C4FF"/>
            <stop offset="1" stop-color="#34EDCB"/>
        </linearGradient>
        <linearGradient id="al" x1="30746.3" x2="31020.3" y1="15401.4" y2="13415.9" gradientUnits="userSpaceOnUse">
            <stop stop-color="#28C4FF"/>
            <stop offset="1" stop-color="#34EDCB"/>
        </linearGradient>
        <linearGradient id="am" x1="9268.77" x2="9273.19" y1="12550.3" y2="13698" gradientUnits="userSpaceOnUse">
            <stop stop-color="#3158D3"/>
            <stop offset="1" stop-color="#306EF3"/>
        </linearGradient>
        <linearGradient id="an" x1="8887.39" x2="9161.72" y1="21869.6" y2="19883.8" gradientUnits="userSpaceOnUse">
            <stop stop-color="#3158D3"/>
            <stop offset="1" stop-color="#306EF3"/>
        </linearGradient>
    </defs>
</svg>
